<?xml version="1.0" encoding="utf-8"?>
<COLLADA xmlns="http://www.collada.org/2005/11/COLLADASchema" version="1.4.1">
  <asset>
    <contributor>
      <author>Blender User</author>
      <authoring_tool>Blender 2.74.0 commit date:2015-03-31, commit time:13:39, hash:000dfc0</authoring_tool>
    </contributor>
    <created>2015-04-01T00:33:44</created>
    <modified>2015-04-01T00:33:44</modified>
    <unit name="meter" meter="1"/>
    <up_axis>Z_UP</up_axis>
  </asset>
  <library_cameras>
    <camera id="Camera-camera" name="Camera">
      <optics>
        <technique_common>
          <perspective>
            <xfov sid="xfov">49.13434</xfov>
            <aspect_ratio>1.777778</aspect_ratio>
            <znear sid="znear">0.1</znear>
            <zfar sid="zfar">100</zfar>
          </perspective>
        </technique_common>
      </optics>
      <extra>
        <technique profile="blender">
          <YF_dofdist>0</YF_dofdist>
          <shiftx>0</shiftx>
          <shifty>0</shifty>
        </technique>
      </extra>
    </camera>
  </library_cameras>
  <library_lights>
    <light id="Lamp-light" name="Lamp">
      <technique_common>
        <point>
          <color sid="color">1 1 1</color>
          <constant_attenuation>1</constant_attenuation>
          <linear_attenuation>0</linear_attenuation>
          <quadratic_attenuation>0.00111109</quadratic_attenuation>
        </point>
      </technique_common>
      <extra>
        <technique profile="blender">
          <adapt_thresh>0.000999987</adapt_thresh>
          <area_shape>1</area_shape>
          <area_size>0.1</area_size>
          <area_sizey>0.1</area_sizey>
          <area_sizez>1</area_sizez>
          <atm_distance_factor>1</atm_distance_factor>
          <atm_extinction_factor>1</atm_extinction_factor>
          <atm_turbidity>2</atm_turbidity>
          <att1>0</att1>
          <att2>1</att2>
          <backscattered_light>1</backscattered_light>
          <bias>1</bias>
          <blue>1</blue>
          <buffers>1</buffers>
          <bufflag>0</bufflag>
          <bufsize>2880</bufsize>
          <buftype>2</buftype>
          <clipend>30.002</clipend>
          <clipsta>1.000799</clipsta>
          <compressthresh>0.04999995</compressthresh>
          <dist sid="blender_dist">29.99998</dist>
          <energy sid="blender_energy">1</energy>
          <falloff_type>2</falloff_type>
          <filtertype>0</filtertype>
          <flag>0</flag>
          <gamma sid="blender_gamma">1</gamma>
          <green>1</green>
          <halo_intensity sid="blnder_halo_intensity">1</halo_intensity>
          <horizon_brightness>1</horizon_brightness>
          <mode>8192</mode>
          <ray_samp>1</ray_samp>
          <ray_samp_method>1</ray_samp_method>
          <ray_samp_type>0</ray_samp_type>
          <ray_sampy>1</ray_sampy>
          <ray_sampz>1</ray_sampz>
          <red>1</red>
          <samp>3</samp>
          <shadhalostep>0</shadhalostep>
          <shadow_b sid="blender_shadow_b">0</shadow_b>
          <shadow_g sid="blender_shadow_g">0</shadow_g>
          <shadow_r sid="blender_shadow_r">0</shadow_r>
          <sky_colorspace>0</sky_colorspace>
          <sky_exposure>1</sky_exposure>
          <skyblendfac>1</skyblendfac>
          <skyblendtype>1</skyblendtype>
          <soft>3</soft>
          <spotblend>0.15</spotblend>
          <spotsize>75</spotsize>
          <spread>1</spread>
          <sun_brightness>1</sun_brightness>
          <sun_effect_type>0</sun_effect_type>
          <sun_intensity>1</sun_intensity>
          <sun_size>1</sun_size>
          <type>0</type>
        </technique>
      </extra>
    </light>
  </library_lights>
  <library_images/>
  <library_geometries>
    <geometry id="Sphere-mesh" name="Sphere">
      <mesh>
        <source id="Sphere-mesh-positions">
          <float_array id="Sphere-mesh-positions-array" count="1446">-0.1950903 0 0.9807853 -0.3826835 0 0.9238795 -0.5555703 0 0.8314696 -0.7071068 0 0.7071068 -0.8314697 0 0.5555702 -0.9238795 0 0.3826834 -0.9807853 0 0.1950903 -1 0 0 -0.9807853 0 -0.1950902 -0.9238796 0 -0.3826833 -0.8314697 0 -0.5555702 -0.7071068 0 -0.7071068 -0.5555702 0 -0.8314697 -0.3826833 0 -0.9238796 -0.1950901 0 -0.9807853 -0.1913417 0.03806024 0.9807853 -0.3753303 0.07465791 0.9238795 -0.5448951 0.1083864 0.8314696 -0.6935199 0.1379497 0.7071068 -0.8154932 0.1622117 0.5555702 -0.9061274 0.18024 0.3826834 -0.9619397 0.1913418 0.1950903 -0.9807853 0.1950904 0 -0.9619398 0.1913418 -0.1950902 -0.9061275 0.18024 -0.3826833 -0.8154932 0.1622117 -0.5555702 -0.6935199 0.1379497 -0.7071068 -0.5448951 0.1083864 -0.8314697 -0.3753301 0.07465785 -0.9238796 -0.1913415 0.03806024 -0.9807853 -0.1802399 0.07465791 0.9807853 -0.3535534 0.1464467 0.9238795 -0.5132799 0.2126076 0.8314696 -0.6532814 0.2705982 0.7071068 -0.7681777 0.3181897 0.5555702 -0.8535533 0.3535535 0.3826834 -0.9061273 0.3753304 0.1950903 -0.9238795 0.3826835 0 -0.9061273 0.3753304 -0.1950902 -0.8535534 0.3535535 -0.3826833 -0.7681777 0.3181897 -0.5555702 -0.6532814 0.2705982 -0.7071068 -0.5132799 0.2126076 -0.8314697 -0.3535532 0.1464467 -0.9238796 -0.1802397 0.07465785 -0.9807853 -0.1622116 0.1083865 0.9807853 -0.3181896 0.2126077 0.9238795 -0.4619397 0.3086584 0.8314696 -0.5879377 0.3928477 0.7071068 -0.6913416 0.4619399 0.5555702 -0.7681776 0.5132801 0.3826834 -0.815493 0.5448952 0.1950903 -0.8314695 0.5555704 0 -0.815493 0.5448952 -0.1950902 -0.7681777 0.5132801 -0.3826833 -0.6913416 0.4619399 -0.5555702 -0.5879377 0.3928477 -0.7071068 -0.4619396 0.3086584 -0.8314697 -0.3181895 0.2126076 -0.9238796 -0.1622114 0.1083864 -0.9807853 -0.1379496 0.1379499 0.9807853 -0.2705979 0.2705983 0.9238795 -0.3928474 0.3928477 0.8314696 -0.4999999 0.5000002 0.7071068 -0.5879377 0.587938 0.5555702 -0.6532813 0.6532816 0.3826834 -0.6935197 0.6935201 0.1950903 -0.7071066 0.707107 0 -0.6935197 0.6935201 -0.1950902 -0.6532814 0.6532816 -0.3826833 -0.5879377 0.587938 -0.5555702 -0.4999999 0.5000002 -0.7071068 -0.3928473 0.3928477 -0.8314697 -0.2705979 0.2705982 -0.9238796 -0.1379494 0.1379497 -0.9807853 -0.1083862 0.1622119 0.9807853 -0.2126074 0.3181899 0.9238795 -0.3086581 0.46194 0.8314696 -0.3928473 0.587938 0.7071068 -0.4619396 0.6913419 0.5555702 -0.5132798 0.7681779 0.3826834 -0.5448948 0.8154933 0.1950903 -0.55557 0.8314698 0 -0.5448948 0.8154933 -0.1950902 -0.5132799 0.7681779 -0.3826833 -0.4619396 0.6913419 -0.5555702 -0.3928473 0.587938 -0.7071068 -0.3086581 0.4619399 -0.8314697 -0.2126073 0.3181898 -0.9238796 -0.1083861 0.1622117 -0.9807853 -0.07465761 0.1802402 0.9807853 -0.1464464 0.3535537 0.9238795 -0.2126073 0.5132802 0.8314696 -0.2705978 0.6532817 0.7071068 -0.3181894 0.768178 0.5555702 -0.3535532 0.8535535 0.3826834 -0.3753299 0.9061275 0.1950903 -0.3826832 0.9238798 0 -0.3753299 0.9061275 -0.1950902 -0.3535532 0.8535535 -0.3826833 -0.3181894 0.768178 -0.5555702 -0.2705978 0.6532817 -0.7071068 -0.2126072 0.5132802 -0.8314697 -0.1464464 0.3535535 -0.9238796 -0.07465755 0.18024 -0.9807853 -0.03805994 0.191342 0.9807853 -0.07465755 0.3753306 0.9238795 -0.1083861 0.5448954 0.8314696 -0.1379494 0.6935201 0.7071068 -0.1622114 0.8154934 0.5555702 -0.1802397 0.9061276 0.3826834 -0.1913413 0.9619398 0.1950903 -0.1950899 0.9807855 0 -0.1913413 0.9619398 -0.1950902 -0.1802397 0.9061276 -0.3826833 -0.1622114 0.8154934 -0.5555702 -0.1379494 0.6935201 -0.7071068 -0.108386 0.5448953 -0.8314697 -0.07465755 0.3753304 -0.9238796 -0.03805989 0.1913417 -0.9807853 3.26636e-7 0.1950906 0.9807853 3.19185e-7 0.3826837 0.9238795 3.11735e-7 0.5555705 0.8314696 3.19185e-7 0.707107 0.7071068 3.34087e-7 0.8314698 0.5555702 2.74482e-7 0.9238797 0.3826834 3.93691e-7 0.9807853 0.1950903 3.7879e-7 1 0 3.93691e-7 0.9807853 -0.1950902 2.29778e-7 0.9238797 -0.3826833 3.34087e-7 0.8314698 -0.5555702 3.19185e-7 0.707107 -0.7071068 3.41537e-7 0.5555704 -0.8314697 3.04284e-7 0.3826835 -0.9238796 3.08009e-7 0.1950904 -0.9807853 0.0380606 0.1913419 0.9807853 0.07465821 0.3753305 0.9238795 0.1083867 0.5448954 0.8314696 0.13795 0.6935201 0.7071068 0.162212 0.8154933 0.5555702 0.1802402 0.9061276 0.3826834 0.1913421 0.9619397 0.1950903 0.1950907 0.9807855 0 0.1913421 0.9619397 -0.1950902 0.1802402 0.9061276 -0.3826833 0.162212 0.8154933 -0.5555702 0.13795 0.6935201 -0.7071068 0.1083867 0.5448952 -0.8314697 0.07465815 0.3753304 -0.9238796 0.03806054 0.1913417 -0.9807853 0.07465827 0.1802402 0.9807853 0.146447 0.3535536 0.9238795 0.2126079 0.5132802 0.8314696 0.2705984 0.6532816 0.7071068 0.31819 0.7681778 0.5555702 0.3535537 0.8535535 0.3826834 0.3753306 0.9061273 0.1950903 0.3826839 0.9238797 0 0.3753306 0.9061273 -0.1950902 0.3535537 0.8535535 -0.3826833 0.31819 0.7681778 -0.5555702 0.2705984 0.6532816 -0.7071068 0.2126079 0.51328 -0.8314697 0.146447 0.3535535 -0.9238796 0.07465815 0.18024 -0.9807853 0.1083868 0.1622118 0.9807853 0.2126079 0.3181899 0.9238795 0.3086587 0.4619399 0.8314696 0.3928478 0.587938 0.7071068 0.4619402 0.6913418 0.5555702 0.5132803 0.7681779 0.3826834 0.5448954 0.8154931 0.1950903 0.5555707 0.8314697 0 0.5448954 0.8154931 -0.1950902 0.5132803 0.7681779 -0.3826833 0.4619402 0.6913418 -0.5555702 0.3928478 0.587938 -0.7071068 0.3086587 0.4619398 -0.8314697 0.2126079 0.3181897 -0.9238796 0.1083867 0.1622117 -0.9807853 0.1379502 0.1379498 0.9807853 0.2705985 0.2705982 0.9238795 0.3928479 0.3928476 0.8314696 0.5000004 0.5000001 0.7071068 0.5879382 0.5879378 0.5555702 0.6532818 0.6532816 0.3826834 0.6935202 0.6935198 0.1950903 0.7071073 0.7071068 0 0.6935202 0.6935198 -0.1950902 0.6532818 0.6532816 -0.3826833 0.5879382 0.5879378 -0.5555702 0.5000004 0.5000001 -0.7071068 0.3928478 0.3928475 -0.8314697 0.2705984 0.2705981 -0.9238796 0.13795 0.1379497 -0.9807853 0.1622121 0.1083865 0.9807853 0.3181901 0.2126076 0.9238795 0.4619402 0.3086584 0.8314696 0.5879382 0.3928475 0.7071068 0.6913421 0.4619397 0.5555702 0.7681781 0.5132801 0.3826834 0.8154934 0.544895 0.1950903 0.8314701 0.5555703 0 0.8154934 0.544895 -0.1950902 0.7681781 0.5132801 -0.3826833 0.6913421 0.4619397 -0.5555702 0.5879382 0.3928475 -0.7071068 0.4619401 0.3086583 -0.8314697 0.31819 0.2126075 -0.9238796 0.162212 0.1083863 -0.9807853 0.1802405 0.07465791 0.9807853 0.3535538 0.1464467 0.9238795 0.5132804 0.2126076 0.8314696 0.6532818 0.270598 0.7071068 0.7681781 0.3181896 0.5555702 0.8535537 0.3535535 0.3826834 0.9061276 0.3753302 0.1950903 0.92388 0.3826834 0 0.9061276 0.3753302 -0.1950902 0.8535537 0.3535535 -0.3826833 0.7681781 0.3181896 -0.5555702 0.6532818 0.270598 -0.7071068 0.5132803 0.2126075 -0.8314697 0.3535537 0.1464466 -0.9238796 0.1802403 0.07465785 -0.9807853 0.1913422 0.03806024 0.9807853 0.3753307 0.07465785 0.9238795 0.5448955 0.1083864 0.8314696 0.6935203 0.1379497 0.7071068 0.8154934 0.1622115 0.5555702 0.9061278 0.18024 0.3826834 0.9619399 0.1913416 0.1950903 0.9807857 0.1950902 0 0.9619399 0.1913416 -0.1950902 0.9061278 0.18024 -0.3826833 0.8154934 0.1622115 -0.5555702 0.6935203 0.1379497 -0.7071068 0.5448954 0.1083863 -0.8314697 0.3753306 0.07465779 -0.9238796 0.191342 0.03806018 -0.9807853 0.1950908 0 0.9807853 0.3826838 0 0.9238795 0.5555707 0 0.8314696 0.7071071 0 0.7071068 0.8314697 0 0.5555702 0.9238799 0 0.3826834 0.9807854 0 0.1950903 1 0 0 0.9807854 0 -0.1950902 0.9238799 0 -0.3826833 0.8314697 0 -0.5555702 0.7071071 0 -0.7071068 0.5555705 0 -0.8314697 0.3826837 0 -0.9238796 0.1950906 0 -0.9807853 0.1913422 -0.03806024 0.9807853 0.3753306 -0.07465779 0.9238795 0.5448955 -0.1083863 0.8314696 0.6935202 -0.1379497 0.7071068 0.8154932 -0.1622117 0.5555702 0.9061278 -0.1802399 0.3826834 0.9619398 -0.1913417 0.1950903 0.9807856 -0.1950904 0 0.9619398 -0.1913417 -0.1950902 0.9061278 -0.1802399 -0.3826833 0.8154932 -0.1622117 -0.5555702 0.6935202 -0.1379497 -0.7071068 0.5448954 -0.1083863 -0.8314697 0.3753305 -0.07465779 -0.9238796 0.191342 -0.03806018 -0.9807853 0.1802404 -0.07465791 0.9807853 0.3535537 -0.1464466 0.9238795 0.5132804 -0.2126075 0.8314696 0.6532818 -0.2705981 0.7071068 0.7681778 -0.3181896 0.5555702 0.8535537 -0.3535533 0.3826834 0.9061275 -0.3753303 0.1950903 0.9238798 -0.3826836 0 0.9061275 -0.3753303 -0.1950902 0.8535537 -0.3535533 -0.3826833 0.7681778 -0.3181896 -0.5555702 0.6532818 -0.2705981 -0.7071068 0.5132802 -0.2126075 -0.8314697 0.3535536 -0.1464465 -0.9238796 0.1802402 -0.07465779 -0.9807853 0.1622121 -0.1083865 0.9807853 0.31819 -0.2126075 0.9238795 0.4619402 -0.3086583 0.8314696 0.5879381 -0.3928475 0.7071068 0.6913417 -0.4619397 0.5555702 0.7681781 -0.5132799 0.3826834 0.8154932 -0.5448951 0.1950903 0.8314698 -0.5555704 0 0.8154932 -0.5448951 -0.1950902 0.7681781 -0.5132799 -0.3826833 0.6913417 -0.4619397 -0.5555702 0.5879381 -0.3928475 -0.7071068 0.46194 -0.3086583 -0.8314697 0.3181899 -0.2126075 -0.9238796 0.1622119 -0.1083863 -0.9807853 0.1379501 -0.1379498 0.9807853 0.2705984 -0.2705981 0.9238795 0.3928478 -0.3928475 0.8314696 0.5000002 -0.5 0.7071068 0.5879378 -0.5879377 0.5555702 0.6532818 -0.6532814 0.3826834 0.6935199 -0.6935198 0.1950903 0.707107 -0.7071069 0 0.6935199 -0.6935198 -0.1950902 0.6532818 -0.6532814 -0.3826833 0.5879378 -0.5879377 -0.5555702 0.5000002 -0.5 -0.7071068 0.3928477 -0.3928474 -0.8314697 0.2705982 -0.270598 -0.9238796 0.13795 -0.1379496 -0.9807853 0.1083868 -0.1622118 0.9807853 0.2126078 -0.3181896 0.9238795 0.3086586 -0.4619398 0.8314696 0.3928477 -0.5879378 0.7071068 0.4619398 -0.6913415 0.5555702 0.5132803 -0.7681777 0.3826834 0.5448951 -0.8154929 0.1950903 0.5555704 -0.8314697 0 0.5448951 -0.8154929 -0.1950902 0.5132803 -0.7681777 -0.3826833 0.4619398 -0.6913415 -0.5555702 0.3928477 -0.5879378 -0.7071068 0.3086585 -0.4619397 -0.8314697 0.2126077 -0.3181896 -0.9238796 0.1083866 -0.1622116 -0.9807853 3.25841e-7 0 -1 0.07465821 -0.18024 0.9807853 0.1464468 -0.3535534 0.9238795 0.2126078 -0.51328 0.8314696 0.2705982 -0.6532815 0.7071068 0.3181897 -0.7681775 0.5555702 0.3535537 -0.8535534 0.3826834 0.3753302 -0.9061272 0.1950903 0.3826835 -0.9238795 0 0.3753302 -0.9061272 -0.1950902 0.3535537 -0.8535534 -0.3826833 0.3181897 -0.7681775 -0.5555702 0.2705982 -0.6532815 -0.7071068 0.2126077 -0.5132799 -0.8314697 0.1464468 -0.3535532 -0.9238796 0.07465809 -0.1802399 -0.9807853 0.03806054 -0.1913418 0.9807853 0.07465809 -0.3753302 0.9238795 0.1083866 -0.5448951 0.8314696 0.1379498 -0.6935199 0.7071068 0.1622117 -0.8154928 0.5555702 0.1802402 -0.9061274 0.3826834 0.1913417 -0.9619394 0.1950903 0.1950904 -0.9807852 0 0.1913417 -0.9619394 -0.1950902 0.1802402 -0.9061274 -0.3826833 0.1622117 -0.8154928 -0.5555702 0.1379498 -0.6935199 -0.7071068 0.1083866 -0.544895 -0.8314697 0.07465803 -0.3753301 -0.9238796 0.03806048 -0.1913416 -0.9807853 3.11735e-7 -0.1950904 0.9807853 2.81932e-7 -0.3826833 0.9238795 2.81932e-7 -0.5555702 0.8314696 1.85075e-7 -0.7071067 0.7071068 1.40371e-7 -0.8314692 0.5555702 3.19185e-7 -0.9238795 0.3826834 0 -0.9807848 0.1950903 1.40371e-7 -0.9999998 0 0 -0.9807848 -0.1950902 3.19185e-7 -0.9238795 -0.3826833 1.40371e-7 -0.8314692 -0.5555702 1.85075e-7 -0.7071067 -0.7071068 2.59581e-7 -0.5555701 -0.8314697 2.5213e-7 -0.3826832 -0.9238796 3.1546e-7 -0.1950902 -0.9807853 -0.03805994 -0.1913418 0.9807853 -0.07465749 -0.3753302 0.9238795 -0.108386 -0.5448951 0.8314696 -0.1379495 -0.6935198 0.7071068 -0.1622114 -0.8154927 0.5555702 -0.1802396 -0.9061273 0.3826834 -0.1913415 -0.9619392 0.1950903 -0.1950901 -0.980785 0 -0.1913415 -0.9619392 -0.1950902 -0.1802396 -0.9061273 -0.3826833 -0.1622114 -0.8154927 -0.5555702 -0.1379495 -0.6935198 -0.7071068 -0.108386 -0.5448949 -0.8314697 -0.07465749 -0.3753301 -0.9238796 -0.03805989 -0.1913416 -0.9807853 -0.07465755 -0.18024 0.9807853 -0.1464463 -0.3535533 0.9238795 -0.2126072 -0.5132799 0.8314696 -0.2705978 -0.6532813 0.7071068 -0.3181893 -0.7681773 0.5555702 -0.3535531 -0.8535533 0.3826834 -0.37533 -0.9061269 0.1950903 -0.3826832 -0.9238792 0 -0.37533 -0.9061269 -0.1950902 -0.3535531 -0.8535533 -0.3826833 -0.3181893 -0.7681773 -0.5555702 -0.2705978 -0.6532813 -0.7071068 -0.2126072 -0.5132797 -0.8314697 -0.1464462 -0.3535532 -0.9238796 -0.07465744 -0.1802399 -0.9807853 -0.1083861 -0.1622117 0.9807853 -0.2126072 -0.3181896 0.9238795 -0.308658 -0.4619396 0.8314696 -0.3928472 -0.5879377 0.7071068 -0.4619394 -0.6913412 0.5555702 -0.5132796 -0.7681776 0.3826834 -0.5448947 -0.8154926 0.1950903 -0.55557 -0.8314692 0 -0.5448947 -0.8154926 -0.1950902 -0.5132796 -0.7681776 -0.3826833 -0.4619394 -0.6913412 -0.5555702 -0.3928472 -0.5879377 -0.7071068 -0.3086579 -0.4619395 -0.8314697 -0.2126072 -0.3181895 -0.9238796 -0.108386 -0.1622116 -0.9807853 -0.1379494 -0.1379497 0.9807853 -0.2705977 -0.2705979 0.9238795 -0.3928471 -0.3928473 0.8314696 -0.4999997 -0.4999998 0.7071068 -0.5879374 -0.5879373 0.5555702 -0.6532811 -0.6532814 0.3826834 -0.6935194 -0.6935194 0.1950903 -0.7071064 -0.7071064 0 -0.6935194 -0.6935194 -0.1950902 -0.6532811 -0.6532814 -0.3826833 -0.5879374 -0.5879373 -0.5555702 -0.4999997 -0.4999998 -0.7071068 -0.3928471 -0.3928472 -0.8314697 -0.2705976 -0.2705979 -0.9238796 -0.1379493 -0.1379496 -0.9807853 -0.1622114 -0.1083864 0.9807853 -0.3181893 -0.2126074 0.9238795 -0.4619394 -0.3086581 0.8314696 -0.5879375 -0.3928473 0.7071068 -0.6913412 -0.4619393 0.5555702 -0.7681773 -0.5132799 0.3826834 -0.8154925 -0.5448946 0.1950903 -0.8314691 -0.5555698 0 -0.8154925 -0.5448946 -0.1950902 -0.7681773 -0.5132799 -0.3826833 -0.6913412 -0.4619393 -0.5555702 -0.5879375 -0.3928473 -0.7071068 -0.4619393 -0.3086581 -0.8314697 -0.3181892 -0.2126073 -0.9238796 -0.1622112 -0.1083863 -0.9807853 0 -1.24694e-7 1 -0.1802397 -0.07465785 0.9807853 -0.353553 -0.1464465 0.9238795 -0.5132796 -0.2126073 0.8314696 -0.6532812 -0.2705979 0.7071068 -0.7681771 -0.3181892 0.5555702 -0.8535529 -0.3535533 0.3826834 -0.9061266 -0.3753298 0.1950903 -0.9238789 -0.382683 0 -0.9061266 -0.3753298 -0.1950902 -0.8535529 -0.3535533 -0.3826833 -0.7681771 -0.3181892 -0.5555702 -0.6532812 -0.2705979 -0.7071068 -0.5132794 -0.2126073 -0.8314697 -0.3535529 -0.1464465 -0.9238796 -0.1802396 -0.07465779 -0.9807853 -0.1913415 -0.03806018 0.9807853 -0.3753299 -0.07465773 0.9238795 -0.5448946 -0.1083862 0.8314696 -0.6935195 -0.1379495 0.7071068 -0.8154924 -0.1622113 0.5555702 -0.906127 -0.1802399 0.3826834 -0.9619389 -0.1913413 0.1950903 -0.9807845 -0.1950899 0 -0.9619389 -0.1913413 -0.1950902 -0.906127 -0.1802399 -0.3826833 -0.8154924 -0.1622113 -0.5555702 -0.6935195 -0.1379495 -0.7071068 -0.5448945 -0.1083862 -0.8314697 -0.3753298 -0.07465767 -0.9238796 -0.1913413 -0.03806018 -0.9807853</float_array>
          <technique_common>
            <accessor source="#Sphere-mesh-positions-array" count="482" stride="3">
              <param name="X" type="float"/>
              <param name="Y" type="float"/>
              <param name="Z" type="float"/>
            </accessor>
          </technique_common>
        </source>
        <source id="Sphere-mesh-normals">
          <float_array id="Sphere-mesh-normals-array" count="2880">-0.9904384 0.09754985 0.09754991 -0.8786131 0.08653593 0.4696283 -0.6331587 0.06236064 0.7715059 -0.2901657 0.02857881 -0.9565496 -0.290166 0.02857881 0.9565494 -0.6331586 0.0623607 -0.7715058 -0.8786131 0.08653593 -0.4696281 -0.9904385 0.09754979 -0.09754961 -0.9527181 0.09383463 0.2890039 -0.7707797 0.07591521 0.6325626 -0.4708895 0.04637849 0.8809723 -0.4708895 0.04637855 -0.8809723 -0.7707797 0.07591527 -0.6325627 -0.9527181 0.09383469 -0.2890039 -0.4527936 0.1373533 0.8809722 -0.4527934 0.1373535 -0.8809723 -0.741159 0.2248284 -0.6325626 -0.9161056 0.277898 -0.2890036 -0.9523764 0.2889003 0.09754979 -0.8448483 0.2562823 0.4696283 -0.6088266 0.1846858 0.7715059 -0.2790148 0.08463817 -0.9565496 -0.2790151 0.08463817 0.9565495 -0.6088266 0.1846857 -0.7715058 -0.8448484 0.2562821 -0.4696281 -0.9523763 0.2889004 -0.09754955 -0.9161056 0.2778978 0.2890039 -0.741159 0.2248283 0.6325626 -0.4172969 0.2230499 0.8809722 -0.417297 0.2230498 -0.8809722 -0.6830562 0.3651011 -0.6325625 -0.8442878 0.4512815 -0.2890035 -0.8777149 0.4691487 0.09754979 -0.7786169 0.4161793 0.4696283 -0.5610979 0.2999131 0.7715059 -0.2571415 0.137445 -0.9565496 -0.2571418 0.1374452 0.9565495 -0.5610979 0.2999129 -0.7715059 -0.7786167 0.4161794 -0.4696283 -0.8777151 0.4691485 -0.09754997 -0.8442878 0.4512813 0.2890039 -0.6830563 0.365101 0.6325626 -0.3657637 0.3001747 0.8809723 -0.3657638 0.3001747 -0.8809722 -0.5987036 0.4913436 -0.6325625 -0.7400245 0.6073226 -0.2890035 -0.7693236 0.6313677 0.09754997 -0.6824632 0.5600833 0.4696283 -0.4918063 0.4036151 0.771506 -0.2253864 0.1849697 -0.9565496 -0.2253867 0.1849701 0.9565495 -0.4918063 0.4036151 -0.7715059 -0.6824634 0.5600832 -0.469628 -0.7693237 0.6313678 -0.09755003 -0.7400245 0.6073224 0.2890038 -0.5987038 0.4913436 0.6325626 -0.3001746 0.3657638 0.8809722 -0.3001745 0.365764 -0.8809721 -0.4913434 0.5987039 -0.6325625 -0.6073223 0.7400249 -0.2890033 -0.6313674 0.7693239 0.09755003 -0.560083 0.6824633 0.4696284 -0.403615 0.4918065 0.7715059 -0.1849698 0.2253863 -0.9565496 -0.18497 0.2253867 0.9565495 -0.403615 0.4918064 -0.7715059 -0.5600832 0.6824634 -0.469628 -0.6313675 0.7693238 -0.09755021 -0.6073225 0.7400246 0.2890037 -0.4913434 0.5987039 0.6325625 -0.2230498 0.4172969 0.8809722 -0.2230498 0.417297 -0.8809722 -0.365101 0.6830563 -0.6325626 -0.451281 0.8442883 -0.2890031 -0.469148 0.8777152 0.09755051 -0.4161792 0.7786169 0.4696283 -0.2999131 0.5610979 0.7715059 -0.1374449 0.2571415 -0.9565497 -0.1374451 0.2571419 0.9565495 -0.2999129 0.5610979 -0.7715059 -0.4161791 0.7786169 -0.4696281 -0.4691483 0.8777152 -0.09755027 -0.4512811 0.8442881 0.2890035 -0.365101 0.6830563 0.6325626 -0.1373533 0.4527935 0.8809722 -0.1373533 0.4527936 -0.8809722 -0.224828 0.7411593 -0.6325625 -0.2778975 0.9161059 -0.2890033 -0.2889001 0.9523764 0.09755051 -0.2562817 0.8448485 0.4696283 -0.1846854 0.6088268 0.7715058 -0.08463811 0.2790148 -0.9565497 -0.08463823 0.2790152 0.9565495 -0.1846855 0.6088268 -0.7715058 -0.2562819 0.8448486 -0.4696279 -0.2889001 0.9523763 -0.09755051 -0.2778975 0.9161058 0.2890033 -0.2248281 0.7411592 0.6325625 -0.04637831 0.4708895 0.8809723 -0.04637831 0.4708896 -0.8809722 -0.07591503 0.7707799 -0.6325625 -0.09383416 0.9527185 -0.2890031 -0.09754925 0.9904384 0.09755104 -0.08653563 0.8786129 0.4696285 -0.0623607 0.6331588 0.7715058 -0.02857869 0.2901657 -0.9565496 -0.02857869 0.2901661 0.9565495 -0.06236046 0.6331588 -0.7715058 -0.08653593 0.8786131 -0.4696279 -0.09754979 0.9904384 -0.09755051 -0.09383463 0.9527183 0.2890035 -0.07591491 0.7707799 0.6325625 0.04637849 0.4708895 0.8809722 0.04637855 0.4708896 -0.8809722 0.07591533 0.7707799 -0.6325624 0.09383475 0.9527183 -0.289003 0.09754985 0.9904381 0.0975511 0.08653599 0.8786129 0.4696285 0.0623607 0.6331588 0.7715057 0.02857881 0.2901657 -0.9565495 0.02857881 0.2901661 0.9565494 0.06236076 0.6331586 -0.7715058 0.08653593 0.8786131 -0.469628 0.09754973 0.9904382 -0.09755098 0.09383463 0.9527184 0.2890031 0.07591527 0.7707799 0.6325625 0.1373535 0.4527934 0.8809722 0.1373536 0.4527935 -0.8809722 0.2248285 0.7411593 -0.6325623 0.2778979 0.9161059 -0.2890029 0.2889004 0.9523761 0.09755104 0.2562822 0.8448481 0.4696288 0.1846858 0.6088266 0.7715058 0.08463829 0.2790148 -0.9565496 0.08463847 0.2790151 0.9565494 0.1846855 0.6088268 -0.7715058 0.2562819 0.8448485 -0.469628 0.2889004 0.9523761 -0.09755104 0.2778975 0.9161059 0.2890031 0.2248281 0.7411593 0.6325625 0.2230498 0.4172968 0.8809722 0.2230499 0.417297 -0.8809722 0.3651012 0.6830564 -0.6325622 0.4512815 0.8442881 -0.289003 0.4691485 0.8777149 0.09755092 0.4161792 0.7786166 0.4696286 0.2999131 0.5610979 0.7715058 0.137445 0.2571415 -0.9565495 0.1374453 0.2571418 0.9565495 0.2999131 0.5610979 -0.7715059 0.4161794 0.7786167 -0.4696282 0.4691486 0.8777149 -0.09755104 0.4512816 0.8442879 0.2890029 0.3651012 0.6830564 0.6325623 0.3001747 0.3657638 0.8809723 0.3001748 0.3657639 -0.8809722 0.4913438 0.5987037 -0.6325623 0.6073226 0.7400247 -0.2890029 0.6313676 0.7693235 0.09755086 0.5600833 0.6824629 0.4696289 0.4036153 0.4918064 0.7715058 0.18497 0.2253864 -0.9565497 0.1849702 0.2253866 0.9565495 0.4036153 0.4918062 -0.7715059 0.560083 0.6824635 -0.4696282 0.6313677 0.7693236 -0.09755086 0.6073223 0.7400248 0.2890031 0.4913439 0.5987037 0.6325623 0.3657639 0.3001744 0.8809722 0.365764 0.3001745 -0.8809722 0.5987041 0.4913434 -0.6325623 0.7400248 0.6073225 -0.2890028 0.7693237 0.6313675 0.09755086 0.6824632 0.5600827 0.4696289 0.4918066 0.4036149 0.7715059 0.2253866 0.1849698 -0.9565495 0.2253868 0.18497 0.9565495 0.4918064 0.4036151 -0.7715058 0.6824633 0.5600832 -0.4696285 0.7693238 0.6313675 -0.09755086 0.7400247 0.6073226 0.289003 0.5987038 0.4913436 0.6325625 0.417297 0.2230497 0.8809722 0.4172971 0.2230497 -0.8809722 0.6830565 0.365101 -0.6325622 0.8442882 0.4512811 -0.2890029 0.8777151 0.4691481 0.09755092 0.7786166 0.4161788 0.4696289 0.5610981 0.2999132 0.7715056 0.2571417 0.137445 -0.9565495 0.257142 0.1374452 0.9565495 0.5610981 0.2999128 -0.771506 0.7786167 0.4161791 -0.4696285 0.877715 0.4691482 -0.09755104 0.8442882 0.4512811 0.289003 0.6830565 0.3651008 0.6325623 0.4527935 0.1373533 0.8809723 0.4527937 0.1373534 -0.8809722 0.7411597 0.2248278 -0.6325621 0.9161059 0.2778976 -0.2890031 0.9523763 0.2889001 0.09755104 0.8448482 0.2562813 0.4696291 0.6088269 0.1846855 0.7715057 0.279015 0.08463823 -0.9565495 0.2790153 0.08463829 0.9565495 0.6088268 0.1846855 -0.7715058 0.8448483 0.2562818 -0.4696285 0.9523762 0.2889001 -0.0975511 0.9161061 0.2778976 0.289003 0.7411596 0.2248283 0.632562 0.4708894 0.04637831 0.8809723 0.4708898 0.04637831 -0.8809722 0.7707804 0.0759148 -0.632562 0.9527185 0.09383422 -0.2890028 0.9904383 0.09754925 0.0975511 0.8786124 0.08653527 0.4696294 0.6331588 0.0623607 0.7715058 0.2901659 0.02857869 -0.9565495 0.2901663 0.02857875 0.9565494 0.6331587 0.06236046 -0.7715058 0.8786128 0.08653593 -0.4696287 0.9904382 0.09754914 -0.09755098 0.9527183 0.09383469 0.2890032 0.7707803 0.07591497 0.6325619 0.4708893 -0.04637873 0.8809723 0.4708898 -0.04637861 -0.8809721 0.7707803 -0.07591539 -0.632562 0.9527185 -0.09383481 -0.2890028 0.9904382 -0.09754991 0.09755104 0.8786124 -0.08653593 0.4696294 0.6331589 -0.0623607 0.7715056 0.2901659 -0.02857893 -0.9565495 0.2901663 -0.02857899 0.9565494 0.6331587 -0.06236076 -0.7715059 0.8786126 -0.08653587 -0.4696291 0.9904382 -0.09754979 -0.0975511 0.9527184 -0.09383469 0.2890029 0.7707803 -0.07591533 0.6325619 0.4527933 -0.1373534 0.8809724 0.4527937 -0.1373534 -0.8809722 0.7411597 -0.2248287 -0.6325617 0.916106 -0.277898 -0.2890026 0.9523761 -0.2889004 0.09755116 0.8448475 -0.2562822 0.4696297 0.6088269 -0.1846855 0.7715056 0.279015 -0.08463835 -0.9565495 0.2790154 -0.08463847 0.9565494 0.6088267 -0.1846855 -0.7715058 0.8448481 -0.2562818 -0.469629 0.9523761 -0.2889004 -0.09755116 0.9161061 -0.2778977 0.2890029 0.7411596 -0.2248283 0.6325619 0.4172966 -0.2230498 0.8809723 0.417297 -0.2230499 -0.8809722 0.6830568 -0.3651016 -0.6325616 0.8442881 -0.4512815 -0.2890028 0.8777148 -0.4691485 0.09755116 0.778616 -0.4161792 0.4696296 0.5610981 -0.2999132 0.7715056 0.2571416 -0.1374452 -0.9565495 0.257142 -0.1374453 0.9565494 0.5610979 -0.2999131 -0.7715058 0.7786163 -0.4161792 -0.4696292 0.8777149 -0.4691486 -0.09755104 0.8442881 -0.4512816 0.2890028 0.6830568 -0.3651015 0.6325618 0.3657635 -0.3001745 0.8809724 0.3657638 -0.3001747 -0.8809722 0.5987042 -0.4913442 -0.6325616 0.7400245 -0.6073231 -0.2890027 0.7693234 -0.631368 0.0975511 0.6824626 -0.5600829 0.4696295 0.4918065 -0.4036152 0.7715057 0.2253865 -0.18497 -0.9565495 0.2253869 -0.1849703 0.9565494 0.4918063 -0.4036151 -0.7715059 0.6824628 -0.560083 -0.4696292 0.7693234 -0.6313678 -0.09755128 0.7400246 -0.6073228 0.2890029 0.5987042 -0.491344 0.6325616 0.3001744 -0.3657637 0.8809723 0.3001746 -0.365764 -0.8809722 0.4913439 -0.5987043 -0.6325617 0.6073225 -0.7400251 -0.2890023 0.6313673 -0.7693238 0.09755128 0.5600827 -0.6824628 0.4696296 0.4036151 -0.4918067 0.7715057 0.1849699 -0.2253867 -0.9565496 0.1849702 -0.2253869 0.9565494 0.403615 -0.4918065 -0.771506 0.560083 -0.6824628 -0.4696291 0.6313673 -0.7693239 -0.09755134 0.6073228 -0.7400246 0.2890028 0.4913439 -0.5987045 0.6325616 0.2230494 -0.4172968 0.8809723 0.2230498 -0.4172971 -0.8809722 0.3651012 -0.6830571 -0.6325616 0.4512813 -0.8442885 -0.2890021 0.4691481 -0.8777151 0.09755116 0.4161785 -0.7786162 0.46963 0.299913 -0.5610981 0.7715058 0.137445 -0.2571418 -0.9565495 0.1374453 -0.2571421 0.9565493 0.299913 -0.5610979 -0.7715059 0.4161792 -0.7786163 -0.4696292 0.4691481 -0.8777151 -0.09755134 0.4512816 -0.8442881 0.2890025 0.3651013 -0.6830568 0.6325618 0.1373531 -0.4527933 0.8809724 0.1373534 -0.4527936 -0.8809722 0.2248283 -0.74116 -0.6325615 0.2778975 -0.9161063 -0.2890021 0.2888998 -0.9523763 0.09755116 0.2562816 -0.8448476 0.4696299 0.1846855 -0.6088268 0.7715058 0.08463817 -0.2790151 -0.9565495 0.08463835 -0.2790155 0.9565493 0.1846855 -0.6088266 -0.7715059 0.2562817 -0.8448478 -0.4696296 0.2888998 -0.9523763 -0.09755116 0.2778977 -0.9161062 0.2890023 0.2248284 -0.7411599 0.6325615 0.04637855 -0.4708894 0.8809723 0.04637831 -0.4708896 -0.8809722 0.07591515 -0.7707806 -0.6325617 0.09383422 -0.9527186 -0.2890022 0.09754925 -0.9904382 0.09755104 0.08653563 -0.8786123 0.4696297 0.06236034 -0.6331587 0.7715058 0.02857875 -0.290166 -0.9565495 0.02857875 -0.2901664 0.9565494 0.06236046 -0.6331585 -0.7715059 0.08653557 -0.8786124 -0.4696294 0.0975492 -0.9904382 -0.0975511 0.0938344 -0.9527187 0.2890023 0.07591503 -0.7707807 0.6325615 -0.04637855 -0.4708894 0.8809723 -0.04637861 -0.4708896 -0.8809722 -0.07591575 -0.7707808 -0.6325614 -0.09383511 -0.9527186 -0.289002 -0.09755021 -0.9904382 0.0975511 -0.08653628 -0.8786122 0.4696299 -0.0623607 -0.6331585 0.7715059 -0.02857887 -0.290166 -0.9565495 -0.02857887 -0.2901664 0.9565494 -0.06236076 -0.6331585 -0.771506 -0.08653587 -0.8786125 -0.4696292 -0.09755009 -0.9904382 -0.09755098 -0.09383469 -0.9527186 0.2890023 -0.07591539 -0.7707808 0.6325613 -0.1373534 -0.4527935 0.8809722 -0.1373537 -0.4527935 -0.8809722 -0.2248286 -0.74116 -0.6325615 -0.2778981 -0.9161062 -0.2890018 -0.2889006 -0.9523762 0.09755104 -0.2562819 -0.8448475 0.4696299 -0.1846858 -0.6088265 0.771506 -0.08463829 -0.279015 -0.9565495 -0.08463841 -0.2790154 0.9565494 -0.1846857 -0.6088265 -0.7715061 -0.2562817 -0.8448478 -0.4696294 -0.2889005 -0.9523761 -0.09755104 -0.2778977 -0.9161062 0.2890022 -0.2248287 -0.74116 0.6325614 -0.2230499 -0.4172968 0.8809722 -0.2230501 -0.417297 -0.880972 -0.3651018 -0.683057 -0.6325614 -0.4512817 -0.8442882 -0.289002 -0.4691487 -0.8777149 0.09755092 -0.4161791 -0.778616 0.4696298 -0.2999132 -0.5610978 0.7715059 -0.1374452 -0.2571417 -0.9565495 -0.1374453 -0.257142 0.9565494 -0.299913 -0.5610976 -0.7715061 -0.4161792 -0.7786161 -0.4696295 -0.4691487 -0.8777147 -0.09755104 -0.4512817 -0.8442882 0.289002 -0.3651016 -0.683057 0.6325615 -0.3001748 -0.3657636 0.8809723 -0.3001748 -0.3657639 -0.8809721 -0.4913443 -0.5987044 -0.6325614 -0.6073232 -0.7400248 -0.2890017 -0.6313679 -0.7693232 0.09755086 -0.5600828 -0.6824624 0.4696299 -0.4036151 -0.4918062 0.771506 -0.18497 -0.2253866 -0.9565495 -0.1849703 -0.2253869 0.9565494 -0.4036149 -0.4918061 -0.7715062 -0.5600828 -0.6824629 -0.4696294 -0.631368 -0.7693234 -0.09755086 -0.6073227 -0.7400249 0.2890021 -0.4913441 -0.5987044 0.6325615 -0.3657638 -0.3001744 0.8809722 -0.365764 -0.3001747 -0.8809721 -0.5987046 -0.4913439 -0.6325615 -0.7400253 -0.6073225 -0.2890017 -0.7693238 -0.6313672 0.09755086 -0.6824629 -0.5600824 0.4696298 -0.4918064 -0.4036148 0.771506 -0.2253866 -0.18497 -0.9565495 -0.225387 -0.1849702 0.9565494 -0.4918063 -0.4036146 -0.7715061 -0.6824629 -0.5600826 -0.4696294 -0.7693239 -0.6313673 -0.09755092 -0.7400251 -0.6073226 0.2890018 -0.5987047 -0.4913438 0.6325613 -0.4172968 -0.2230498 0.8809723 -0.4172972 -0.2230497 -0.880972 -0.6830574 -0.3651013 -0.6325613 -0.8442887 -0.4512813 -0.2890016 -0.8777152 -0.469148 0.0975508 -0.7786162 -0.4161785 0.4696298 -0.5610978 -0.2999129 0.771506 -0.2571417 -0.1374451 -0.9565495 -0.2571421 -0.1374453 0.9565494 -0.5610976 -0.2999129 -0.7715061 -0.7786164 -0.416179 -0.4696293 -0.8777152 -0.4691479 -0.09755092 -0.8442885 -0.4512815 0.2890018 -0.683057 -0.3651015 0.6325615 -0.4527936 -0.1373532 0.8809722 -0.4527939 -0.1373533 -0.880972 -0.7411603 -0.2248281 -0.6325613 -0.9161065 -0.2778976 -0.2890016 -0.9523763 -0.2889 0.09755051 -0.8448477 -0.2562813 0.46963 -0.6088265 -0.1846851 0.7715061 -0.2790151 -0.08463817 -0.9565495 -0.2790156 -0.08463829 0.9565494 -0.6088264 -0.1846852 -0.7715062 -0.8448478 -0.2562817 -0.4696294 -0.9523764 -0.2888997 -0.09755074 -0.9161064 -0.2778978 0.2890018 -0.7411602 -0.2248281 0.6325613 -0.09801232 0.009653329 -0.9951384 -0.09801268 0.009653389 0.9951384 -0.09424608 0.02858918 0.9951384 -0.09424579 0.02858912 -0.9951384 -0.08685761 0.04642635 0.9951384 -0.08685743 0.04642623 -0.9951384 -0.07613134 0.06247937 0.9951384 -0.07613116 0.06247925 -0.9951384 -0.06247931 0.0761314 0.9951384 -0.06247919 0.07613116 -0.9951384 -0.04642629 0.08685761 0.9951384 -0.04642623 0.08685743 -0.9951384 -0.02858912 0.09424597 0.9951383 -0.02858912 0.09424585 -0.9951384 -0.009653329 0.0980125 0.9951384 -0.009653389 0.09801238 -0.9951384 0.009653389 0.0980125 0.9951384 0.009653389 0.09801238 -0.9951384 0.02858918 0.09424591 0.9951384 0.02858912 0.09424585 -0.9951384 0.04642629 0.08685749 0.9951384 0.04642623 0.08685743 -0.9951384 0.06247931 0.07613116 0.9951383 0.06247925 0.07613116 -0.9951384 0.07613128 0.06247925 0.9951384 0.07613116 0.06247925 -0.9951384 0.08685749 0.04642623 0.9951384 0.08685743 0.04642623 -0.9951384 0.09424585 0.02858912 0.9951384 0.09424585 0.02858912 -0.9951384 0.09801244 0.009653329 0.9951384 0.09801238 0.009653329 -0.9951383 0.09801244 -0.009653389 0.9951384 0.09801238 -0.009653389 -0.9951384 0.09424591 -0.02858918 0.9951384 0.09424585 -0.02858918 -0.9951384 0.08685755 -0.04642635 0.9951383 0.08685743 -0.04642629 -0.9951384 0.07613128 -0.06247931 0.9951383 0.07613122 -0.06247925 -0.9951384 0.06247937 -0.0761314 0.9951384 0.06247925 -0.07613122 -0.9951384 0.04642635 -0.08685767 0.9951384 0.04642623 -0.08685749 -0.9951384 0.02858918 -0.09424608 0.9951384 0.02858912 -0.09424591 -0.9951384 0.009653389 -0.09801268 0.9951384 0.009653389 -0.09801244 -0.9951384 -0.009653389 -0.09801274 0.9951384 -0.009653389 -0.09801244 -0.9951384 -0.02858924 -0.09424614 0.9951384 -0.02858912 -0.09424591 -0.9951384 -0.04642647 -0.08685779 0.9951383 -0.04642629 -0.08685749 -0.9951384 -0.06247949 -0.07613146 0.9951384 -0.06247925 -0.07613122 -0.9951383 -0.07613152 -0.06247949 0.9951384 -0.07613122 -0.06247925 -0.9951384 -0.08685779 -0.04642647 0.9951384 -0.08685749 -0.04642629 -0.9951384 -0.0942462 -0.02858918 0.9951384 -0.09424585 -0.02858912 -0.9951384 -0.470889 -0.04638141 0.8809724 -0.4708894 -0.04638099 -0.8809722 -0.09801268 -0.009653925 0.9951384 -0.7707795 -0.07591915 -0.6325625 -0.9527177 -0.09383934 -0.2890039 -0.9904378 -0.09755432 0.09755057 -0.8786116 -0.08654022 0.4696299 -0.6331579 -0.0623635 0.7715063 -0.2901657 -0.02858012 -0.9565495 -0.2901661 -0.02858036 0.9565494 -0.6331586 -0.06236243 -0.7715058 -0.8786129 -0.08653825 -0.469628 -0.990438 -0.09755355 -0.09754949 -0.9527185 -0.09383696 0.2890018 -0.7707805 -0.07591742 0.6325615 -0.09801238 -0.009653747 -0.9951384 -0.9904383 0.09754973 0.09754979 -0.8786131 0.08653593 0.4696282 -0.6331586 0.0623607 0.7715059 -0.2901657 0.02857887 -0.9565497 -0.2901661 0.02857881 0.9565495 -0.6331587 0.06236064 -0.7715059 -0.878613 0.08653593 -0.4696282 -0.9904384 0.09754985 -0.09754949 -0.9527181 0.09383469 0.2890039 -0.7707797 0.07591527 0.6325627 -0.4708895 0.04637855 0.8809723 -0.4708894 0.04637849 -0.8809723 -0.7707797 0.07591521 -0.6325626 -0.9527181 0.09383463 -0.2890039 -0.4527934 0.1373535 0.8809722 -0.4527935 0.1373533 -0.8809722 -0.7411591 0.2248284 -0.6325626 -0.9161056 0.2778978 -0.2890039 -0.9523763 0.2889004 0.09754985 -0.8448483 0.2562821 0.4696282 -0.6088267 0.1846857 0.7715059 -0.2790148 0.08463829 -0.9565496 -0.2790152 0.08463823 0.9565495 -0.6088266 0.1846858 -0.7715059 -0.8448483 0.2562823 -0.4696283 -0.9523763 0.2889006 -0.09754979 -0.9161058 0.2778977 0.2890039 -0.741159 0.2248284 0.6325626 -0.4172969 0.2230498 0.8809722 -0.4172969 0.2230498 -0.8809722 -0.6830562 0.365101 -0.6325626 -0.8442879 0.4512814 -0.2890036 -0.8777151 0.4691485 0.09754997 -0.7786167 0.4161794 0.4696283 -0.5610979 0.2999129 0.771506 -0.2571415 0.1374449 -0.9565496 -0.2571418 0.1374452 0.9565495 -0.5610979 0.2999131 -0.7715058 -0.7786169 0.4161793 -0.4696281 -0.877715 0.4691486 -0.09754979 -0.8442878 0.4512815 0.2890038 -0.6830562 0.365101 0.6325626 -0.3657637 0.3001746 0.8809722 -0.3657639 0.3001745 -0.8809722 -0.5987038 0.4913436 -0.6325626 -0.7400246 0.6073225 -0.2890036 -0.7693237 0.6313678 0.09754997 -0.6824633 0.5600832 0.4696282 -0.4918063 0.4036152 0.7715059 -0.2253863 0.1849699 -0.9565496 -0.2253866 0.1849702 0.9565495 -0.4918063 0.4036151 -0.771506 -0.6824632 0.5600833 -0.4696282 -0.7693236 0.6313677 -0.09754997 -0.7400245 0.6073225 0.2890037 -0.5987037 0.4913436 0.6325625 -0.3001745 0.3657639 0.8809722 -0.3001747 0.3657637 -0.8809722 -0.4913434 0.5987039 -0.6325625 -0.6073225 0.7400246 -0.2890036 -0.6313675 0.7693238 0.09755027 -0.5600832 0.6824633 0.4696283 -0.4036151 0.4918065 0.7715059 -0.1849698 0.2253865 -0.9565496 -0.18497 0.2253867 0.9565495 -0.4036148 0.4918065 -0.771506 -0.5600832 0.6824634 -0.4696282 -0.6313674 0.7693239 -0.09755003 -0.6073223 0.7400248 0.2890034 -0.4913434 0.5987039 0.6325625 -0.2230498 0.4172969 0.8809722 -0.2230498 0.4172971 -0.8809722 -0.365101 0.6830563 -0.6325625 -0.4512811 0.8442881 -0.2890034 -0.4691483 0.877715 0.09755021 -0.4161791 0.7786169 0.4696284 -0.2999129 0.5610979 0.7715059 -0.1374449 0.2571415 -0.9565497 -0.1374451 0.2571419 0.9565495 -0.2999131 0.5610979 -0.7715058 -0.4161792 0.7786169 -0.469628 -0.469148 0.8777152 -0.09755051 -0.451281 0.8442882 0.2890033 -0.365101 0.6830563 0.6325626 -0.1373533 0.4527935 0.8809722 -0.1373534 0.4527935 -0.8809722 -0.2248281 0.7411592 -0.6325626 -0.2778975 0.916106 -0.2890033 -0.2889001 0.9523763 0.09755051 -0.2562819 0.8448485 0.4696282 -0.1846855 0.6088267 0.7715058 -0.08463805 0.2790148 -0.9565496 -0.08463823 0.2790151 0.9565494 -0.1846854 0.6088267 -0.7715058 -0.2562817 0.8448486 -0.4696281 -0.2889001 0.9523764 -0.09755051 -0.2778975 0.9161059 0.2890034 -0.224828 0.7411593 0.6325625 -0.04637849 0.4708895 0.8809723 -0.04637837 0.4708896 -0.8809722 -0.07591491 0.77078 -0.6325625 -0.09383463 0.9527183 -0.2890035 -0.09754979 0.9904384 0.09755051 -0.08653593 0.8786131 0.4696283 -0.06236052 0.6331586 0.7715058 -0.02857881 0.2901657 -0.9565496 -0.02857875 0.2901661 0.9565495 -0.06236034 0.6331586 -0.7715058 -0.08653563 0.8786131 -0.4696282 -0.09754925 0.9904384 -0.09755104 -0.09383416 0.9527185 0.2890031 -0.07591503 0.7707799 0.6325625 0.04637855 0.4708894 0.8809722 0.04637849 0.4708896 -0.8809722 0.07591527 0.7707799 -0.6325625 0.09383463 0.9527184 -0.2890032 0.09754973 0.9904382 0.09755098 0.08653587 0.8786129 0.4696283 0.06236076 0.6331588 0.7715057 0.02857881 0.2901657 -0.9565495 0.02857881 0.2901661 0.9565495 0.0623607 0.6331587 -0.7715059 0.08653599 0.8786131 -0.4696281 0.09754985 0.9904381 -0.0975511 0.09383475 0.9527184 0.2890031 0.07591527 0.7707799 0.6325625 0.1373535 0.4527934 0.8809722 0.1373535 0.4527936 -0.8809722 0.2248281 0.7411592 -0.6325625 0.2778976 0.9161059 -0.2890033 0.2889004 0.9523761 0.09755104 0.2562819 0.8448484 0.4696284 0.1846855 0.6088269 0.7715057 0.08463823 0.2790148 -0.9565496 0.08463841 0.2790152 0.9565495 0.1846858 0.6088265 -0.7715059 0.2562823 0.8448482 -0.4696283 0.2889004 0.9523761 -0.09755104 0.2778979 0.9161059 0.2890028 0.2248285 0.7411593 0.6325623 0.2230499 0.4172968 0.8809723 0.2230499 0.417297 -0.8809722 0.3651012 0.6830564 -0.6325623 0.4512814 0.8442881 -0.2890031 0.4691486 0.8777149 0.09755104 0.4161794 0.7786165 0.4696287 0.2999131 0.561098 0.7715058 0.137445 0.2571415 -0.9565496 0.1374452 0.2571418 0.9565495 0.2999132 0.5610977 -0.771506 0.4161794 0.7786168 -0.4696282 0.4691485 0.8777149 -0.09755092 0.4512815 0.8442881 0.289003 0.3651012 0.6830564 0.6325622 0.3001747 0.3657637 0.8809722 0.3001748 0.3657638 -0.8809722 0.4913439 0.5987037 -0.6325623 0.6073223 0.7400248 -0.2890031 0.6313677 0.7693236 0.0975508 0.5600829 0.6824634 0.4696284 0.4036154 0.4918062 0.7715058 0.1849699 0.2253864 -0.9565496 0.1849701 0.2253867 0.9565494 0.4036152 0.4918063 -0.7715058 0.5600833 0.682463 -0.4696286 0.6313676 0.7693235 -0.09755086 0.6073226 0.7400247 0.2890029 0.4913438 0.5987037 0.6325623 0.3657639 0.3001745 0.8809722 0.365764 0.3001745 -0.8809722 0.5987038 0.4913436 -0.6325625 0.7400247 0.6073226 -0.289003 0.7693238 0.6313675 0.09755092 0.6824631 0.560083 0.4696288 0.4918065 0.4036152 0.7715057 0.2253865 0.1849699 -0.9565495 0.2253869 0.18497 0.9565495 0.4918065 0.4036148 -0.771506 0.6824634 0.5600829 -0.4696286 0.7693237 0.6313675 -0.09755086 0.7400248 0.6073225 0.2890028 0.5987041 0.4913434 0.6325623 0.4172968 0.2230499 0.8809723 0.4172971 0.2230498 -0.8809722 0.6830565 0.3651008 -0.6325623 0.8442882 0.4512812 -0.289003 0.877715 0.4691482 0.09755104 0.7786166 0.416179 0.4696288 0.5610981 0.2999128 0.7715058 0.2571416 0.137445 -0.9565495 0.257142 0.1374451 0.9565494 0.561098 0.2999129 -0.7715058 0.7786167 0.4161789 -0.4696286 0.8777151 0.4691481 -0.09755092 0.8442882 0.4512811 0.2890029 0.6830565 0.365101 0.6325622 0.4527935 0.1373534 0.8809723 0.4527937 0.1373535 -0.8809722 0.7411593 0.2248283 -0.6325623 0.9161061 0.2778976 -0.289003 0.9523762 0.2889001 0.09755104 0.8448482 0.2562817 0.4696288 0.6088269 0.1846856 0.7715057 0.2790149 0.08463811 -0.9565495 0.2790153 0.08463829 0.9565495 0.6088267 0.1846856 -0.7715058 0.8448483 0.2562813 -0.4696288 0.9523763 0.2889001 -0.09755104 0.9161059 0.2778976 0.2890031 0.7411595 0.2248277 0.6325624 0.4708895 0.04637861 0.8809723 0.4708898 0.04637837 -0.8809721 0.7707802 0.07591503 -0.6325621 0.9527182 0.09383469 -0.2890032 0.9904382 0.09754914 0.09755098 0.8786126 0.08653587 0.469629 0.6331589 0.06236052 0.7715056 0.2901659 0.02857875 -0.9565495 0.2901663 0.02857869 0.9565494 0.6331586 0.06236034 -0.7715059 0.8786126 0.08653533 -0.4696292 0.9904383 0.09754925 -0.0975511 0.9527185 0.09383422 0.2890028 0.7707803 0.07591474 0.6325621 0.4708893 -0.04637855 0.8809723 0.4708897 -0.04637879 -0.8809722 0.7707803 -0.07591527 -0.6325619 0.9527184 -0.09383469 -0.2890028 0.9904382 -0.09754979 0.0975511 0.8786125 -0.08653587 0.4696294 0.6331589 -0.06236076 0.7715056 0.2901659 -0.02857887 -0.9565496 0.2901663 -0.02857899 0.9565494 0.6331586 -0.06236076 -0.7715058 0.8786125 -0.08653599 -0.4696291 0.9904382 -0.09754991 -0.09755104 0.9527185 -0.09383481 0.2890028 0.7707803 -0.07591539 0.632562 0.4527933 -0.1373533 0.8809723 0.4527935 -0.1373535 -0.8809722 0.7411597 -0.2248284 -0.632562 0.9161061 -0.2778977 -0.2890029 0.9523761 -0.2889004 0.09755116 0.8448479 -0.2562817 0.4696292 0.608827 -0.1846857 0.7715057 0.2790149 -0.08463841 -0.9565496 0.2790154 -0.08463847 0.9565494 0.6088267 -0.1846855 -0.7715059 0.8448477 -0.2562823 -0.4696294 0.9523762 -0.2889004 -0.09755116 0.916106 -0.277898 0.2890026 0.7411597 -0.2248287 0.6325617 0.4172967 -0.2230498 0.8809724 0.4172969 -0.22305 -0.8809723 0.6830568 -0.3651015 -0.6325619 0.8442881 -0.4512816 -0.2890028 0.8777149 -0.4691486 0.0975511 0.7786161 -0.4161791 0.4696294 0.5610981 -0.2999132 0.7715057 0.2571417 -0.1374452 -0.9565496 0.257142 -0.1374453 0.9565494 0.5610978 -0.2999132 -0.771506 0.7786161 -0.4161793 -0.4696293 0.8777148 -0.4691485 -0.09755116 0.8442881 -0.4512815 0.2890028 0.6830568 -0.3651016 0.6325616 0.3657636 -0.3001744 0.8809724 0.3657639 -0.3001747 -0.8809722 0.5987042 -0.4913439 -0.6325616 0.7400246 -0.6073228 -0.289003 0.7693234 -0.6313678 0.09755128 0.6824627 -0.5600829 0.4696295 0.4918065 -0.4036153 0.7715057 0.2253865 -0.18497 -0.9565495 0.2253868 -0.1849703 0.9565494 0.4918063 -0.4036152 -0.771506 0.6824627 -0.560083 -0.4696292 0.7693234 -0.631368 -0.0975511 0.7400245 -0.6073231 0.2890027 0.5987042 -0.4913442 0.6325616 0.3001743 -0.3657637 0.8809723 0.3001744 -0.365764 -0.8809722 0.4913438 -0.5987045 -0.6325616 0.6073228 -0.7400246 -0.2890028 0.6313673 -0.7693239 0.09755128 0.5600829 -0.6824627 0.4696294 0.4036151 -0.4918066 0.7715058 0.18497 -0.2253866 -0.9565495 0.1849702 -0.2253869 0.9565494 0.403615 -0.4918065 -0.771506 0.5600828 -0.6824629 -0.4696293 0.6313672 -0.7693239 -0.09755128 0.6073225 -0.7400251 0.2890022 0.4913439 -0.5987043 0.6325617 0.2230497 -0.4172968 0.8809723 0.2230497 -0.4172971 -0.8809722 0.3651013 -0.6830568 -0.6325618 0.4512817 -0.8442882 -0.2890025 0.4691481 -0.8777151 0.09755128 0.4161791 -0.7786161 0.4696295 0.2999131 -0.561098 0.7715057 0.137445 -0.2571418 -0.9565495 0.1374452 -0.2571422 0.9565494 0.2999129 -0.5610979 -0.771506 0.4161785 -0.7786163 -0.4696297 0.4691481 -0.8777151 -0.09755122 0.4512813 -0.8442885 0.2890021 0.3651012 -0.6830571 0.6325616 0.1373533 -0.4527933 0.8809723 0.1373533 -0.4527935 -0.8809722 0.2248283 -0.7411599 -0.6325615 0.2778977 -0.9161062 -0.2890023 0.2888998 -0.9523763 0.09755116 0.2562816 -0.8448476 0.4696298 0.1846855 -0.6088268 0.7715058 0.08463829 -0.2790151 -0.9565495 0.08463829 -0.2790155 0.9565494 0.1846855 -0.6088266 -0.771506 0.2562816 -0.8448478 -0.4696296 0.2888998 -0.9523763 -0.09755116 0.2778975 -0.9161063 0.2890021 0.2248283 -0.74116 0.6325615 0.04637819 -0.4708893 0.8809723 0.04637837 -0.4708896 -0.8809722 0.07591503 -0.7707807 -0.6325615 0.0938344 -0.9527187 -0.2890023 0.0975492 -0.9904382 0.0975511 0.08653557 -0.8786122 0.4696297 0.06236046 -0.6331586 0.7715058 0.02857893 -0.290166 -0.9565495 0.02857887 -0.2901664 0.9565494 0.06236028 -0.6331586 -0.771506 0.08653563 -0.8786124 -0.4696294 0.09754925 -0.9904382 -0.09755104 0.09383422 -0.9527186 0.2890022 0.07591515 -0.7707806 0.6325616 -0.04637855 -0.4708894 0.8809723 -0.04637861 -0.4708896 -0.8809722 -0.07591539 -0.7707806 -0.6325616 -0.09383469 -0.9527186 -0.2890024 -0.09755009 -0.9904382 0.09755098 -0.08653587 -0.8786123 0.4696295 -0.06236076 -0.6331586 0.7715058 -0.02857893 -0.290166 -0.9565495 -0.02857887 -0.2901664 0.9565494 -0.0623607 -0.6331585 -0.771506 -0.08653628 -0.8786123 -0.4696296 -0.09755021 -0.9904382 -0.0975511 -0.09383511 -0.9527186 0.289002 -0.07591569 -0.7707806 0.6325616 -0.1373536 -0.4527934 0.8809723 -0.1373535 -0.4527937 -0.8809722 -0.2248288 -0.74116 -0.6325614 -0.2778977 -0.9161062 -0.2890022 -0.2889005 -0.9523761 0.09755104 -0.2562817 -0.8448477 0.4696297 -0.1846858 -0.6088265 0.7715059 -0.08463829 -0.2790151 -0.9565496 -0.08463841 -0.2790155 0.9565494 -0.1846858 -0.6088265 -0.771506 -0.256282 -0.8448477 -0.4696297 -0.2889006 -0.9523762 -0.0975511 -0.2778981 -0.9161062 0.2890018 -0.2248286 -0.74116 0.6325615 -0.2230499 -0.4172968 0.8809723 -0.2230501 -0.417297 -0.8809721 -0.3651016 -0.683057 -0.6325615 -0.4512817 -0.8442882 -0.289002 -0.4691487 -0.8777147 0.09755104 -0.4161791 -0.778616 0.4696298 -0.2999131 -0.5610978 0.771506 -0.1374452 -0.2571417 -0.9565495 -0.1374453 -0.2571421 0.9565494 -0.2999132 -0.5610976 -0.7715061 -0.4161792 -0.7786161 -0.4696295 -0.4691487 -0.8777149 -0.09755092 -0.4512817 -0.8442882 0.289002 -0.3651018 -0.683057 0.6325614 -0.3001746 -0.3657637 0.8809723 -0.3001748 -0.365764 -0.8809722 -0.4913441 -0.5987044 -0.6325615 -0.6073227 -0.7400249 -0.2890021 -0.631368 -0.7693233 0.09755092 -0.5600826 -0.6824628 0.4696297 -0.403615 -0.4918062 0.771506 -0.18497 -0.2253866 -0.9565496 -0.1849704 -0.2253868 0.9565494 -0.403615 -0.4918061 -0.7715062 -0.5600829 -0.6824625 -0.4696295 -0.6313679 -0.7693233 -0.09755086 -0.6073232 -0.7400248 0.2890017 -0.4913443 -0.5987044 0.6325613 -0.3657639 -0.3001744 0.8809723 -0.365764 -0.3001747 -0.8809721 -0.5987048 -0.4913437 -0.6325613 -0.7400251 -0.6073226 -0.2890018 -0.7693239 -0.6313673 0.09755086 -0.6824628 -0.5600825 0.4696297 -0.4918064 -0.4036148 0.771506 -0.2253866 -0.18497 -0.9565495 -0.225387 -0.1849702 0.9565494 -0.4918063 -0.4036148 -0.7715061 -0.682463 -0.5600826 -0.4696295 -0.7693238 -0.6313673 -0.09755086 -0.7400253 -0.6073225 0.2890017 -0.5987046 -0.4913439 0.6325615 -0.4172969 -0.2230497 0.8809723 -0.4172972 -0.22305 -0.880972 -0.683057 -0.3651015 -0.6325615 -0.8442884 -0.4512815 -0.2890018 -0.8777152 -0.4691479 0.09755092 -0.7786162 -0.416179 0.4696296 -0.5610978 -0.2999129 0.771506 -0.2571418 -0.137445 -0.9565495 -0.2571421 -0.1374453 0.9565494 -0.5610979 -0.2999128 -0.7715061 -0.7786164 -0.4161786 -0.4696296 -0.8777152 -0.469148 -0.0975508 -0.8442887 -0.4512813 0.2890015 -0.6830574 -0.3651013 0.6325613 -0.4527935 -0.1373531 0.8809722 -0.4527939 -0.1373534 -0.880972 -0.7411602 -0.2248281 -0.6325613 -0.9161064 -0.2778978 -0.2890017 -0.9523764 -0.2888997 0.0975508 -0.8448477 -0.2562817 0.4696297 -0.6088265 -0.1846853 0.771506 -0.2790151 -0.08463817 -0.9565495 -0.2790156 -0.08463829 0.9565494 -0.6088264 -0.1846851 -0.7715062 -0.8448479 -0.2562814 -0.4696297 -0.9523763 -0.2889 -0.09755051 -0.9161065 -0.2778976 0.2890016 -0.7411603 -0.2248281 0.6325613 -0.4708895 -0.04638069 0.8809722 -0.4708895 -0.04638063 -0.8809722 -0.7707805 -0.07591742 -0.6325615 -0.9527184 -0.09383726 -0.2890018 -0.990438 -0.09755355 0.09754979 -0.8786129 -0.08653801 0.4696282 -0.6331585 -0.06236243 0.7715058 -0.2901657 -0.02858 -0.9565495 -0.2901661 -0.0285806 0.9565495 -0.6331577 -0.0623638 -0.7715063 -0.8786118 -0.08654028 -0.4696296 -0.9904378 -0.09755462 -0.09755057 -0.9527177 -0.09383904 0.2890039 -0.7707795 -0.07591915 0.6325625</float_array>
          <technique_common>
            <accessor source="#Sphere-mesh-normals-array" count="960" stride="3">
              <param name="X" type="float"/>
              <param name="Y" type="float"/>
              <param name="Z" type="float"/>
            </accessor>
          </technique_common>
        </source>
        <vertices id="Sphere-mesh-vertices">
          <input semantic="POSITION" source="#Sphere-mesh-positions"/>
        </vertices>
        <polylist count="960">
          <input semantic="VERTEX" source="#Sphere-mesh-vertices" offset="0"/>
          <input semantic="NORMAL" source="#Sphere-mesh-normals" offset="1"/>
          <vcount>3 3 3 3 3 3 3 3 3 3 3 3 3 3 3 3 3 3 3 3 3 3 3 3 3 3 3 3 3 3 3 3 3 3 3 3 3 3 3 3 3 3 3 3 3 3 3 3 3 3 3 3 3 3 3 3 3 3 3 3 3 3 3 3 3 3 3 3 3 3 3 3 3 3 3 3 3 3 3 3 3 3 3 3 3 3 3 3 3 3 3 3 3 3 3 3 3 3 3 3 3 3 3 3 3 3 3 3 3 3 3 3 3 3 3 3 3 3 3 3 3 3 3 3 3 3 3 3 3 3 3 3 3 3 3 3 3 3 3 3 3 3 3 3 3 3 3 3 3 3 3 3 3 3 3 3 3 3 3 3 3 3 3 3 3 3 3 3 3 3 3 3 3 3 3 3 3 3 3 3 3 3 3 3 3 3 3 3 3 3 3 3 3 3 3 3 3 3 3 3 3 3 3 3 3 3 3 3 3 3 3 3 3 3 3 3 3 3 3 3 3 3 3 3 3 3 3 3 3 3 3 3 3 3 3 3 3 3 3 3 3 3 3 3 3 3 3 3 3 3 3 3 3 3 3 3 3 3 3 3 3 3 3 3 3 3 3 3 3 3 3 3 3 3 3 3 3 3 3 3 3 3 3 3 3 3 3 3 3 3 3 3 3 3 3 3 3 3 3 3 3 3 3 3 3 3 3 3 3 3 3 3 3 3 3 3 3 3 3 3 3 3 3 3 3 3 3 3 3 3 3 3 3 3 3 3 3 3 3 3 3 3 3 3 3 3 3 3 3 3 3 3 3 3 3 3 3 3 3 3 3 3 3 3 3 3 3 3 3 3 3 3 3 3 3 3 3 3 3 3 3 3 3 3 3 3 3 3 3 3 3 3 3 3 3 3 3 3 3 3 3 3 3 3 3 3 3 3 3 3 3 3 3 3 3 3 3 3 3 3 3 3 3 3 3 3 3 3 3 3 3 3 3 3 3 3 3 3 3 3 3 3 3 3 3 3 3 3 3 3 3 3 3 3 3 3 3 3 3 3 3 3 3 3 3 3 3 3 3 3 3 3 3 3 3 3 3 3 3 3 3 3 3 3 3 3 3 3 3 3 3 3 3 3 3 3 3 3 3 3 3 3 3 3 3 3 3 3 3 3 3 3 3 3 3 3 3 3 3 3 3 3 3 3 3 3 3 3 3 3 3 3 3 3 3 3 3 3 3 3 3 3 3 3 3 3 3 3 3 3 3 3 3 3 3 3 3 3 3 3 3 3 3 3 3 3 3 3 3 3 3 3 3 3 3 3 3 3 3 3 3 3 3 3 3 3 3 3 3 3 3 3 3 3 3 3 3 3 3 3 3 3 3 3 3 3 3 3 3 3 3 3 3 3 3 3 3 3 3 3 3 3 3 3 3 3 3 3 3 3 3 3 3 3 3 3 3 3 3 3 3 3 3 3 3 3 3 3 3 3 3 3 3 3 3 3 3 3 3 3 3 3 3 3 3 3 3 3 3 3 3 3 3 3 3 3 3 3 3 3 3 3 3 3 3 3 3 3 3 3 3 3 3 3 3 3 3 3 3 3 3 3 3 3 3 3 3 3 3 3 3 3 3 3 3 3 3 3 3 3 3 3 3 3 3 3 3 3 3 3 3 3 3 3 3 3 3 3 3 3 3 3 3 3 3 3 3 3 3 3 3 3 3 3 3 3 3 3 3 3 3 3 3 3 3 3 3 3 3 3 3 3 3 3 3 3 3 3 3 3 3 3 3 3 3 3 3 3 3 3 3 3 3 3 3 3 3 3 3 3 3 3 3 3 3 3 3 3 3 3 3 3 3 3 3 3 3 3 3 3 3 3 3 3 3 3 3 3 3 3 3 3 3 3 3 3 3 3 3 3 3 3 3 3 3 3 3 3 3 3 3 3 3 3 3 3 3 3 3 3 3 3 3 3 3 3 3 3 3 3 3 3 3 3 3 3 3 3 3 3 3 3 3 3 3 3 3 3 3 3 3 3 3 3 3 3 3 3 3 3 3 3 3 3 3 3 3 3 3 3 3 3 3 3 3 3 3 3 3 3 3 3 3 3 3 3 3 3 3 3 3 3 3 3 3 3 3 3 3 3 3 3 3 3 3 3 3 3 3 3 3 3 3 3 3 3 3 3 3 3 </vcount>
          <p>6 0 21 0 22 0 4 1 19 1 20 1 2 2 17 2 18 2 13 3 28 3 29 3 1 4 0 4 15 4 12 5 11 5 26 5 10 6 9 6 24 6 7 7 22 7 23 7 5 8 20 8 21 8 3 9 18 9 19 9 2 10 1 10 16 10 12 11 27 11 28 11 11 12 10 12 25 12 8 13 23 13 24 13 16 14 31 14 32 14 28 15 27 15 42 15 26 16 25 16 40 16 23 17 38 17 39 17 21 18 36 18 37 18 19 19 34 19 35 19 17 20 32 20 33 20 28 21 43 21 44 21 16 22 15 22 30 22 27 23 26 23 41 23 25 24 24 24 39 24 23 25 22 25 37 25 21 26 20 26 35 26 18 27 33 27 34 27 32 28 31 28 46 28 42 29 57 29 58 29 40 30 55 30 56 30 38 31 53 31 54 31 37 32 36 32 51 32 34 33 49 33 50 33 33 34 32 34 47 34 43 35 58 35 59 35 30 36 45 36 46 36 41 37 56 37 57 37 40 38 39 38 54 38 37 39 52 39 53 39 36 40 35 40 50 40 33 41 48 41 49 41 46 42 61 42 62 42 57 43 72 43 73 43 56 44 55 44 70 44 53 45 68 45 69 45 52 46 51 46 66 46 49 47 64 47 65 47 47 48 62 48 63 48 58 49 73 49 74 49 45 50 60 50 61 50 57 51 56 51 71 51 55 52 54 52 69 52 52 53 67 53 68 53 51 54 50 54 65 54 48 55 63 55 64 55 61 56 76 56 77 56 72 57 87 57 88 57 70 58 85 58 86 58 68 59 83 59 84 59 67 60 66 60 81 60 64 61 79 61 80 61 62 62 77 62 78 62 73 63 88 63 89 63 60 64 75 64 76 64 72 65 71 65 86 65 70 66 69 66 84 66 67 67 82 67 83 67 66 68 65 68 80 68 64 69 63 69 78 69 76 70 91 70 92 70 87 71 102 71 103 71 85 72 100 72 101 72 83 73 98 73 99 73 81 74 96 74 97 74 79 75 94 75 95 75 77 76 92 76 93 76 89 77 88 77 103 77 75 78 90 78 91 78 87 79 86 79 101 79 85 80 84 80 99 80 83 81 82 81 97 81 81 82 80 82 95 82 79 83 78 83 93 83 91 84 106 84 107 84 102 85 117 85 118 85 100 86 115 86 116 86 98 87 113 87 114 87 96 88 111 88 112 88 94 89 109 89 110 89 92 90 107 90 108 90 104 91 103 91 118 91 90 92 105 92 106 92 102 93 101 93 116 93 100 94 99 94 114 94 98 95 97 95 112 95 96 96 95 96 110 96 94 97 93 97 108 97 106 98 121 98 122 98 118 99 117 99 132 99 115 100 130 100 131 100 113 101 128 101 129 101 111 102 126 102 127 102 109 103 124 103 125 103 107 104 122 104 123 104 119 105 118 105 133 105 105 106 120 106 121 106 117 107 116 107 131 107 115 108 114 108 129 108 113 109 112 109 127 109 111 110 110 110 125 110 108 111 123 111 124 111 121 112 136 112 137 112 132 113 147 113 148 113 130 114 145 114 146 114 128 115 143 115 144 115 126 116 141 116 142 116 124 117 139 117 140 117 122 118 137 118 138 118 134 119 133 119 148 119 120 120 135 120 136 120 132 121 131 121 146 121 130 122 129 122 144 122 128 123 127 123 142 123 126 124 125 124 140 124 123 125 138 125 139 125 136 126 151 126 152 126 148 127 147 127 162 127 145 128 160 128 161 128 143 129 158 129 159 129 141 130 156 130 157 130 139 131 154 131 155 131 137 132 152 132 153 132 149 133 148 133 163 133 135 134 150 134 151 134 147 135 146 135 161 135 145 136 144 136 159 136 143 137 142 137 157 137 141 138 140 138 155 138 139 139 138 139 153 139 151 140 166 140 167 140 162 141 177 141 178 141 160 142 175 142 176 142 158 143 173 143 174 143 156 144 171 144 172 144 154 145 169 145 170 145 152 146 167 146 168 146 163 147 178 147 179 147 150 148 165 148 166 148 162 149 161 149 176 149 160 150 159 150 174 150 158 151 157 151 172 151 156 152 155 152 170 152 154 153 153 153 168 153 166 154 181 154 182 154 178 155 177 155 192 155 175 156 190 156 191 156 173 157 188 157 189 157 172 158 171 158 186 158 169 159 184 159 185 159 167 160 182 160 183 160 179 161 178 161 193 161 165 162 180 162 181 162 177 163 176 163 191 163 175 164 174 164 189 164 172 165 187 165 188 165 171 166 170 166 185 166 169 167 168 167 183 167 181 168 196 168 197 168 193 169 192 169 207 169 190 170 205 170 206 170 188 171 203 171 204 171 187 172 186 172 201 172 184 173 199 173 200 173 182 174 197 174 198 174 194 175 193 175 208 175 180 176 195 176 196 176 192 177 191 177 206 177 190 178 189 178 204 178 187 179 202 179 203 179 186 180 185 180 200 180 184 181 183 181 198 181 197 182 196 182 211 182 208 183 207 183 222 183 206 184 205 184 220 184 203 185 218 185 219 185 202 186 201 186 216 186 199 187 214 187 215 187 197 188 212 188 213 188 209 189 208 189 223 189 195 190 210 190 211 190 207 191 206 191 221 191 205 192 204 192 219 192 202 193 217 193 218 193 201 194 200 194 215 194 198 195 213 195 214 195 212 196 211 196 226 196 222 197 237 197 238 197 220 198 235 198 236 198 218 199 233 199 234 199 217 200 216 200 231 200 214 201 229 201 230 201 213 202 212 202 227 202 224 203 223 203 238 203 210 204 225 204 226 204 221 205 236 205 237 205 220 206 219 206 234 206 217 207 232 207 233 207 216 208 215 208 230 208 213 209 228 209 229 209 226 210 241 210 242 210 238 211 237 211 252 211 235 212 250 212 251 212 233 213 248 213 249 213 232 214 231 214 246 214 229 215 244 215 245 215 228 216 227 216 242 216 239 217 238 217 253 217 225 218 240 218 241 218 237 219 236 219 251 219 235 220 234 220 249 220 232 221 247 221 248 221 231 222 230 222 245 222 228 223 243 223 244 223 241 224 256 224 257 224 253 225 252 225 267 225 250 226 265 226 266 226 248 227 263 227 264 227 247 228 246 228 261 228 244 229 259 229 260 229 243 230 242 230 257 230 254 231 253 231 268 231 240 232 255 232 256 232 251 233 266 233 267 233 250 234 249 234 264 234 247 235 262 235 263 235 246 236 245 236 260 236 244 237 243 237 258 237 256 238 271 238 272 238 268 239 267 239 282 239 265 240 280 240 281 240 263 241 278 241 279 241 262 242 261 242 276 242 259 243 274 243 275 243 258 244 257 244 272 244 269 245 268 245 283 245 255 246 270 246 271 246 266 247 281 247 282 247 265 248 264 248 279 248 262 249 277 249 278 249 261 250 260 250 275 250 259 251 258 251 273 251 271 252 286 252 287 252 283 253 282 253 297 253 280 254 295 254 296 254 278 255 293 255 294 255 277 256 276 256 291 256 274 257 289 257 290 257 273 258 272 258 287 258 284 259 283 259 298 259 270 260 285 260 286 260 282 261 281 261 296 261 280 262 279 262 294 262 277 263 292 263 293 263 276 264 275 264 290 264 274 265 273 265 288 265 286 266 301 266 302 266 298 267 297 267 312 267 295 268 310 268 311 268 293 269 308 269 309 269 292 270 291 270 306 270 289 271 304 271 305 271 288 272 287 272 302 272 298 273 313 273 314 273 285 274 300 274 301 274 297 275 296 275 311 275 295 276 294 276 309 276 292 277 307 277 308 277 291 278 290 278 305 278 289 279 288 279 303 279 301 280 316 280 317 280 313 281 312 281 327 281 310 282 325 282 326 282 308 283 323 283 324 283 307 284 306 284 321 284 304 285 319 285 320 285 303 286 302 286 317 286 313 287 328 287 329 287 300 288 315 288 316 288 312 289 311 289 326 289 310 290 309 290 324 290 307 291 322 291 323 291 306 292 305 292 320 292 304 293 303 293 318 293 316 294 332 294 333 294 328 295 327 295 343 295 325 296 341 296 342 296 323 297 339 297 340 297 321 298 337 298 338 298 319 299 335 299 336 299 318 300 317 300 333 300 329 301 328 301 344 301 315 302 331 302 332 302 327 303 326 303 342 303 325 304 324 304 340 304 323 305 322 305 338 305 321 306 320 306 336 306 319 307 318 307 334 307 332 308 347 308 348 308 344 309 343 309 358 309 341 310 356 310 357 310 339 311 354 311 355 311 337 312 352 312 353 312 335 313 350 313 351 313 334 314 333 314 348 314 344 315 359 315 360 315 331 316 346 316 347 316 342 317 357 317 358 317 341 318 340 318 355 318 339 319 338 319 353 319 337 320 336 320 351 320 335 321 334 321 349 321 347 322 362 322 363 322 359 323 358 323 373 323 356 324 371 324 372 324 354 325 369 325 370 325 352 326 367 326 368 326 350 327 365 327 366 327 349 328 348 328 363 328 359 329 374 329 375 329 347 330 346 330 361 330 357 331 372 331 373 331 356 332 355 332 370 332 354 333 353 333 368 333 352 334 351 334 366 334 350 335 349 335 364 335 362 336 377 336 378 336 374 337 373 337 388 337 371 338 386 338 387 338 369 339 384 339 385 339 367 340 382 340 383 340 365 341 380 341 381 341 364 342 363 342 378 342 374 343 389 343 390 343 362 344 361 344 376 344 372 345 387 345 388 345 371 346 370 346 385 346 369 347 368 347 383 347 367 348 366 348 381 348 364 349 379 349 380 349 377 350 392 350 393 350 389 351 388 351 403 351 386 352 401 352 402 352 384 353 399 353 400 353 382 354 397 354 398 354 380 355 395 355 396 355 379 356 378 356 393 356 389 357 404 357 405 357 377 358 376 358 391 358 387 359 402 359 403 359 386 360 385 360 400 360 384 361 383 361 398 361 382 362 381 362 396 362 380 363 379 363 394 363 392 364 407 364 408 364 404 365 403 365 418 365 401 366 416 366 417 366 399 367 414 367 415 367 397 368 412 368 413 368 395 369 410 369 411 369 394 370 393 370 408 370 404 371 419 371 420 371 392 372 391 372 406 372 402 373 417 373 418 373 401 374 400 374 415 374 399 375 398 375 413 375 397 376 396 376 411 376 395 377 394 377 409 377 407 378 422 378 423 378 419 379 418 379 433 379 416 380 431 380 432 380 414 381 429 381 430 381 412 382 427 382 428 382 410 383 425 383 426 383 409 384 408 384 423 384 419 385 434 385 435 385 406 386 421 386 422 386 417 387 432 387 433 387 416 388 415 388 430 388 413 389 428 389 429 389 412 390 411 390 426 390 410 391 409 391 424 391 422 392 437 392 438 392 433 393 448 393 449 393 431 394 446 394 447 394 429 395 444 395 445 395 428 396 427 396 442 396 425 397 440 397 441 397 423 398 438 398 439 398 434 399 449 399 450 399 421 400 436 400 437 400 433 401 432 401 447 401 431 402 430 402 445 402 428 403 443 403 444 403 427 404 426 404 441 404 425 405 424 405 439 405 438 406 437 406 453 406 449 407 448 407 464 407 446 408 462 408 463 408 444 409 460 409 461 409 442 410 458 410 459 410 440 411 456 411 457 411 439 412 438 412 454 412 449 413 465 413 466 413 437 414 436 414 452 414 447 415 463 415 464 415 446 416 445 416 461 416 444 417 443 417 459 417 442 418 441 418 457 418 440 419 439 419 455 419 453 420 468 420 469 420 465 421 464 421 479 421 462 422 477 422 478 422 460 423 475 423 476 423 458 424 473 424 474 424 456 425 471 425 472 425 454 426 469 426 470 426 465 427 480 427 481 427 452 428 467 428 468 428 464 429 463 429 478 429 462 430 461 430 476 430 460 431 459 431 474 431 458 432 457 432 472 432 456 433 455 433 470 433 330 434 14 434 29 434 0 435 451 435 15 435 15 436 451 436 30 436 330 437 29 437 44 437 30 438 451 438 45 438 330 439 44 439 59 439 45 440 451 440 60 440 330 441 59 441 74 441 60 442 451 442 75 442 330 443 74 443 89 443 75 444 451 444 90 444 330 445 89 445 104 445 90 446 451 446 105 446 330 447 104 447 119 447 105 448 451 448 120 448 330 449 119 449 134 449 120 450 451 450 135 450 330 451 134 451 149 451 135 452 451 452 150 452 330 453 149 453 164 453 150 454 451 454 165 454 330 455 164 455 179 455 165 456 451 456 180 456 330 457 179 457 194 457 180 458 451 458 195 458 330 459 194 459 209 459 195 460 451 460 210 460 330 461 209 461 224 461 210 462 451 462 225 462 330 463 224 463 239 463 225 464 451 464 240 464 330 465 239 465 254 465 240 466 451 466 255 466 330 467 254 467 269 467 255 468 451 468 270 468 330 469 269 469 284 469 270 470 451 470 285 470 330 471 284 471 299 471 285 472 451 472 300 472 330 473 299 473 314 473 300 474 451 474 315 474 330 475 314 475 329 475 315 476 451 476 331 476 330 477 329 477 345 477 331 478 451 478 346 478 330 479 345 479 360 479 346 480 451 480 361 480 330 481 360 481 375 481 361 482 451 482 376 482 330 483 375 483 390 483 376 484 451 484 391 484 330 485 390 485 405 485 391 486 451 486 406 486 330 487 405 487 420 487 406 488 451 488 421 488 330 489 420 489 435 489 421 490 451 490 436 490 330 491 435 491 450 491 436 492 451 492 452 492 330 493 450 493 466 493 452 494 451 494 467 494 330 495 466 495 481 495 469 496 468 496 1 496 479 497 12 497 13 497 467 498 451 498 0 498 477 499 10 499 11 499 475 500 8 500 9 500 474 501 473 501 6 501 472 502 471 502 4 502 470 503 469 503 2 503 480 504 13 504 14 504 468 505 467 505 0 505 478 506 11 506 12 506 476 507 9 507 10 507 474 508 7 508 8 508 473 509 472 509 5 509 471 510 470 510 3 510 330 511 481 511 14 511 7 512 6 512 22 512 5 513 4 513 20 513 3 514 2 514 18 514 14 515 13 515 29 515 16 516 1 516 15 516 27 517 12 517 26 517 25 518 10 518 24 518 8 519 7 519 23 519 6 520 5 520 21 520 4 521 3 521 19 521 17 522 2 522 16 522 13 523 12 523 28 523 26 524 11 524 25 524 9 525 8 525 24 525 17 526 16 526 32 526 43 527 28 527 42 527 41 528 26 528 40 528 24 529 23 529 39 529 22 530 21 530 37 530 20 531 19 531 35 531 18 532 17 532 33 532 29 533 28 533 44 533 31 534 16 534 30 534 42 535 27 535 41 535 40 536 25 536 39 536 38 537 23 537 37 537 36 538 21 538 35 538 19 539 18 539 34 539 47 540 32 540 46 540 43 541 42 541 58 541 41 542 40 542 56 542 39 543 38 543 54 543 52 544 37 544 51 544 35 545 34 545 50 545 48 546 33 546 47 546 44 547 43 547 59 547 31 548 30 548 46 548 42 549 41 549 57 549 55 550 40 550 54 550 38 551 37 551 53 551 51 552 36 552 50 552 34 553 33 553 49 553 47 554 46 554 62 554 58 555 57 555 73 555 71 556 56 556 70 556 54 557 53 557 69 557 67 558 52 558 66 558 50 559 49 559 65 559 48 560 47 560 63 560 59 561 58 561 74 561 46 562 45 562 61 562 72 563 57 563 71 563 70 564 55 564 69 564 53 565 52 565 68 565 66 566 51 566 65 566 49 567 48 567 64 567 62 568 61 568 77 568 73 569 72 569 88 569 71 570 70 570 86 570 69 571 68 571 84 571 82 572 67 572 81 572 65 573 64 573 80 573 63 574 62 574 78 574 74 575 73 575 89 575 61 576 60 576 76 576 87 577 72 577 86 577 85 578 70 578 84 578 68 579 67 579 83 579 81 580 66 580 80 580 79 581 64 581 78 581 77 582 76 582 92 582 88 583 87 583 103 583 86 584 85 584 101 584 84 585 83 585 99 585 82 586 81 586 97 586 80 587 79 587 95 587 78 588 77 588 93 588 104 589 89 589 103 589 76 590 75 590 91 590 102 591 87 591 101 591 100 592 85 592 99 592 98 593 83 593 97 593 96 594 81 594 95 594 94 595 79 595 93 595 92 596 91 596 107 596 103 597 102 597 118 597 101 598 100 598 116 598 99 599 98 599 114 599 97 600 96 600 112 600 95 601 94 601 110 601 93 602 92 602 108 602 119 603 104 603 118 603 91 604 90 604 106 604 117 605 102 605 116 605 115 606 100 606 114 606 113 607 98 607 112 607 111 608 96 608 110 608 109 609 94 609 108 609 107 610 106 610 122 610 133 611 118 611 132 611 116 612 115 612 131 612 114 613 113 613 129 613 112 614 111 614 127 614 110 615 109 615 125 615 108 616 107 616 123 616 134 617 119 617 133 617 106 618 105 618 121 618 132 619 117 619 131 619 130 620 115 620 129 620 128 621 113 621 127 621 126 622 111 622 125 622 109 623 108 623 124 623 122 624 121 624 137 624 133 625 132 625 148 625 131 626 130 626 146 626 129 627 128 627 144 627 127 628 126 628 142 628 125 629 124 629 140 629 123 630 122 630 138 630 149 631 134 631 148 631 121 632 120 632 136 632 147 633 132 633 146 633 145 634 130 634 144 634 143 635 128 635 142 635 141 636 126 636 140 636 124 637 123 637 139 637 137 638 136 638 152 638 163 639 148 639 162 639 146 640 145 640 161 640 144 641 143 641 159 641 142 642 141 642 157 642 140 643 139 643 155 643 138 644 137 644 153 644 164 645 149 645 163 645 136 646 135 646 151 646 162 647 147 647 161 647 160 648 145 648 159 648 158 649 143 649 157 649 156 650 141 650 155 650 154 651 139 651 153 651 152 652 151 652 167 652 163 653 162 653 178 653 161 654 160 654 176 654 159 655 158 655 174 655 157 656 156 656 172 656 155 657 154 657 170 657 153 658 152 658 168 658 164 659 163 659 179 659 151 660 150 660 166 660 177 661 162 661 176 661 175 662 160 662 174 662 173 663 158 663 172 663 171 664 156 664 170 664 169 665 154 665 168 665 167 666 166 666 182 666 193 667 178 667 192 667 176 668 175 668 191 668 174 669 173 669 189 669 187 670 172 670 186 670 170 671 169 671 185 671 168 672 167 672 183 672 194 673 179 673 193 673 166 674 165 674 181 674 192 675 177 675 191 675 190 676 175 676 189 676 173 677 172 677 188 677 186 678 171 678 185 678 184 679 169 679 183 679 182 680 181 680 197 680 208 681 193 681 207 681 191 682 190 682 206 682 189 683 188 683 204 683 202 684 187 684 201 684 185 685 184 685 200 685 183 686 182 686 198 686 209 687 194 687 208 687 181 688 180 688 196 688 207 689 192 689 206 689 205 690 190 690 204 690 188 691 187 691 203 691 201 692 186 692 200 692 199 693 184 693 198 693 212 694 197 694 211 694 223 695 208 695 222 695 221 696 206 696 220 696 204 697 203 697 219 697 217 698 202 698 216 698 200 699 199 699 215 699 198 700 197 700 213 700 224 701 209 701 223 701 196 702 195 702 211 702 222 703 207 703 221 703 220 704 205 704 219 704 203 705 202 705 218 705 216 706 201 706 215 706 199 707 198 707 214 707 227 708 212 708 226 708 223 709 222 709 238 709 221 710 220 710 236 710 219 711 218 711 234 711 232 712 217 712 231 712 215 713 214 713 230 713 228 714 213 714 227 714 239 715 224 715 238 715 211 716 210 716 226 716 222 717 221 717 237 717 235 718 220 718 234 718 218 719 217 719 233 719 231 720 216 720 230 720 214 721 213 721 229 721 227 722 226 722 242 722 253 723 238 723 252 723 236 724 235 724 251 724 234 725 233 725 249 725 247 726 232 726 246 726 230 727 229 727 245 727 243 728 228 728 242 728 254 729 239 729 253 729 226 730 225 730 241 730 252 731 237 731 251 731 250 732 235 732 249 732 233 733 232 733 248 733 246 734 231 734 245 734 229 735 228 735 244 735 242 736 241 736 257 736 268 737 253 737 267 737 251 738 250 738 266 738 249 739 248 739 264 739 262 740 247 740 261 740 245 741 244 741 260 741 258 742 243 742 257 742 269 743 254 743 268 743 241 744 240 744 256 744 252 745 251 745 267 745 265 746 250 746 264 746 248 747 247 747 263 747 261 748 246 748 260 748 259 749 244 749 258 749 257 750 256 750 272 750 283 751 268 751 282 751 266 752 265 752 281 752 264 753 263 753 279 753 277 754 262 754 276 754 260 755 259 755 275 755 273 756 258 756 272 756 284 757 269 757 283 757 256 758 255 758 271 758 267 759 266 759 282 759 280 760 265 760 279 760 263 761 262 761 278 761 276 762 261 762 275 762 274 763 259 763 273 763 272 764 271 764 287 764 298 765 283 765 297 765 281 766 280 766 296 766 279 767 278 767 294 767 292 768 277 768 291 768 275 769 274 769 290 769 288 770 273 770 287 770 299 771 284 771 298 771 271 772 270 772 286 772 297 773 282 773 296 773 295 774 280 774 294 774 278 775 277 775 293 775 291 776 276 776 290 776 289 777 274 777 288 777 287 778 286 778 302 778 313 779 298 779 312 779 296 780 295 780 311 780 294 781 293 781 309 781 307 782 292 782 306 782 290 783 289 783 305 783 303 784 288 784 302 784 299 785 298 785 314 785 286 786 285 786 301 786 312 787 297 787 311 787 310 788 295 788 309 788 293 789 292 789 308 789 306 790 291 790 305 790 304 791 289 791 303 791 302 792 301 792 317 792 328 793 313 793 327 793 311 794 310 794 326 794 309 795 308 795 324 795 322 796 307 796 321 796 305 797 304 797 320 797 318 798 303 798 317 798 314 799 313 799 329 799 301 800 300 800 316 800 327 801 312 801 326 801 325 802 310 802 324 802 308 803 307 803 323 803 321 804 306 804 320 804 319 805 304 805 318 805 317 806 316 806 333 806 344 807 328 807 343 807 326 808 325 808 342 808 324 809 323 809 340 809 322 810 321 810 338 810 320 811 319 811 336 811 334 812 318 812 333 812 345 813 329 813 344 813 316 814 315 814 332 814 343 815 327 815 342 815 341 816 325 816 340 816 339 817 323 817 338 817 337 818 321 818 336 818 335 819 319 819 334 819 333 820 332 820 348 820 359 821 344 821 358 821 342 822 341 822 357 822 340 823 339 823 355 823 338 824 337 824 353 824 336 825 335 825 351 825 349 826 334 826 348 826 345 827 344 827 360 827 332 828 331 828 347 828 343 829 342 829 358 829 356 830 341 830 355 830 354 831 339 831 353 831 352 832 337 832 351 832 350 833 335 833 349 833 348 834 347 834 363 834 374 835 359 835 373 835 357 836 356 836 372 836 355 837 354 837 370 837 353 838 352 838 368 838 351 839 350 839 366 839 364 840 349 840 363 840 360 841 359 841 375 841 362 842 347 842 361 842 358 843 357 843 373 843 371 844 356 844 370 844 369 845 354 845 368 845 367 846 352 846 366 846 365 847 350 847 364 847 363 848 362 848 378 848 389 849 374 849 388 849 372 850 371 850 387 850 370 851 369 851 385 851 368 852 367 852 383 852 366 853 365 853 381 853 379 854 364 854 378 854 375 855 374 855 390 855 377 856 362 856 376 856 373 857 372 857 388 857 386 858 371 858 385 858 384 859 369 859 383 859 382 860 367 860 381 860 365 861 364 861 380 861 378 862 377 862 393 862 404 863 389 863 403 863 387 864 386 864 402 864 385 865 384 865 400 865 383 866 382 866 398 866 381 867 380 867 396 867 394 868 379 868 393 868 390 869 389 869 405 869 392 870 377 870 391 870 388 871 387 871 403 871 401 872 386 872 400 872 399 873 384 873 398 873 397 874 382 874 396 874 395 875 380 875 394 875 393 876 392 876 408 876 419 877 404 877 418 877 402 878 401 878 417 878 400 879 399 879 415 879 398 880 397 880 413 880 396 881 395 881 411 881 409 882 394 882 408 882 405 883 404 883 420 883 407 884 392 884 406 884 403 885 402 885 418 885 416 886 401 886 415 886 414 887 399 887 413 887 412 888 397 888 411 888 410 889 395 889 409 889 408 890 407 890 423 890 434 891 419 891 433 891 417 892 416 892 432 892 415 893 414 893 430 893 413 894 412 894 428 894 411 895 410 895 426 895 424 896 409 896 423 896 420 897 419 897 435 897 407 898 406 898 422 898 418 899 417 899 433 899 431 900 416 900 430 900 414 901 413 901 429 901 427 902 412 902 426 902 425 903 410 903 424 903 423 904 422 904 438 904 434 905 433 905 449 905 432 906 431 906 447 906 430 907 429 907 445 907 443 908 428 908 442 908 426 909 425 909 441 909 424 910 423 910 439 910 435 911 434 911 450 911 422 912 421 912 437 912 448 913 433 913 447 913 446 914 431 914 445 914 429 915 428 915 444 915 442 916 427 916 441 916 440 917 425 917 439 917 454 918 438 918 453 918 465 919 449 919 464 919 447 920 446 920 463 920 445 921 444 921 461 921 443 922 442 922 459 922 441 923 440 923 457 923 455 924 439 924 454 924 450 925 449 925 466 925 453 926 437 926 452 926 448 927 447 927 464 927 462 928 446 928 461 928 460 929 444 929 459 929 458 930 442 930 457 930 456 931 440 931 455 931 454 932 453 932 469 932 480 933 465 933 479 933 463 934 462 934 478 934 461 935 460 935 476 935 459 936 458 936 474 936 457 937 456 937 472 937 455 938 454 938 470 938 466 939 465 939 481 939 453 940 452 940 468 940 479 941 464 941 478 941 477 942 462 942 476 942 475 943 460 943 474 943 473 944 458 944 472 944 471 945 456 945 470 945 2 946 469 946 1 946 480 947 479 947 13 947 478 948 477 948 11 948 476 949 475 949 9 949 7 950 474 950 6 950 5 951 472 951 4 951 3 952 470 952 2 952 481 953 480 953 14 953 1 954 468 954 0 954 479 955 478 955 12 955 477 956 476 956 10 956 475 957 474 957 8 957 6 958 473 958 5 958 4 959 471 959 3 959</p>
        </polylist>
      </mesh>
    </geometry>
  </library_geometries>
  <library_controllers/>
  <library_visual_scenes>
    <visual_scene id="Scene" name="Scene">
      <node id="Camera" name="Camera" type="NODE">
        <matrix sid="transform">0.6858805 -0.3173701 0.6548619 7.481132 0.7276338 0.3124686 -0.6106656 -6.50764 -0.01081678 0.8953432 0.4452454 5.343665 0 0 0 1</matrix>
        <instance_camera url="#Camera-camera"/>
      </node>
      <node id="Lamp" name="Lamp" type="NODE">
        <matrix sid="transform">-0.2908646 -0.7711008 0.5663932 4.076245 0.9551712 -0.1998834 0.2183912 1.005454 -0.05518906 0.6045247 0.7946723 5.903862 0 0 0 1</matrix>
        <instance_light url="#Lamp-light"/>
      </node>
      <node id="Sphere" name="Sphere" type="NODE">
        <matrix sid="transform">1 0 0 0 0 1 0 0 0 0 1 -0.04480819 0 0 0 1</matrix>
        <instance_geometry url="#Sphere-mesh"/>
      </node>
    </visual_scene>
  </library_visual_scenes>
  <scene>
    <instance_visual_scene url="#Scene"/>
  </scene>
</COLLADA>