#
## Alias OBJ Material File
# Exported from SketchUp, (c) 2000-2012 Trimble Navigation Limited

newmtl M_0043_SaddleBrown
Ka 0.000000 0.000000 0.000000
Kd 0.545098 0.270588 0.074510
Ks 0.330000 0.330000 0.330000

newmtl FrontColor
Ka 0.000000 0.000000 0.000000
Kd 1.000000 1.000000 1.000000
Ks 0.330000 0.330000 0.330000

newmtl M_0039_DarkOrange
Ka 0.000000 0.000000 0.000000
Kd 1.000000 0.549020 0.000000
Ks 0.330000 0.330000 0.330000

newmtl M_0040_Peru
Ka 0.000000 0.000000 0.000000
Kd 0.803922 0.521569 0.247059
Ks 0.330000 0.330000 0.330000

