<?xml version="1.0" encoding="UTF-8" standalone="no"?>
<!-- Created with Inkscape (http://www.inkscape.org/) -->
<svg
   xmlns:dc="http://purl.org/dc/elements/1.1/"
   xmlns:cc="http://web.resource.org/cc/"
   xmlns:rdf="http://www.w3.org/1999/02/22-rdf-syntax-ns#"
   xmlns:svg="http://www.w3.org/2000/svg"
   xmlns="http://www.w3.org/2000/svg"
   xmlns:xlink="http://www.w3.org/1999/xlink"
   xmlns:sodipodi="http://sodipodi.sourceforge.net/DTD/sodipodi-0.dtd"
   xmlns:inkscape="http://www.inkscape.org/namespaces/inkscape"
   id="svg2"
   sodipodi:version="0.32"
   inkscape:version="0.45.1"
   width="800"
   height="833"
   version="1.0"
   sodipodi:docbase="C:\Users\Joel\Desktop"
   sodipodi:docname="Mercury Layers.svg"
   inkscape:output_extension="org.inkscape.output.svg.inkscape">
  <metadata
     id="metadata7">
    <rdf:RDF>
      <cc:Work
         rdf:about="">
        <dc:format>image/svg+xml</dc:format>
        <dc:type
           rdf:resource="http://purl.org/dc/dcmitype/StillImage" />
      </cc:Work>
    </rdf:RDF>
  </metadata>
  <defs
     id="defs5">
    <linearGradient
       inkscape:collect="always"
       id="linearGradient3217">
      <stop
         style="stop-color:#fae072;stop-opacity:1"
         offset="0"
         id="stop3219" />
      <stop
         style="stop-color:#faae53;stop-opacity:0;"
         offset="1"
         id="stop3221" />
    </linearGradient>
    <linearGradient
       id="linearGradient3088">
      <stop
         style="stop-color:#ffffff;stop-opacity:1"
         offset="0"
         id="stop3090" />
      <stop
         style="stop-color:#4d4d4d;stop-opacity:1"
         offset="1"
         id="stop3092" />
    </linearGradient>
    <linearGradient
       id="linearGradient3048">
      <stop
         style="stop-color:#fefa98;stop-opacity:1;"
         offset="0"
         id="stop3050" />
      <stop
         style="stop-color:#dcc14e;stop-opacity:1;"
         offset="1"
         id="stop3052" />
    </linearGradient>
    <linearGradient
       id="linearGradient3039">
      <stop
         style="stop-color:#fae072;stop-opacity:1;"
         offset="0"
         id="stop3041" />
      <stop
         style="stop-color:#fae072;stop-opacity:0;"
         offset="1"
         id="stop3043" />
    </linearGradient>
    <linearGradient
       id="linearGradient2987">
      <stop
         style="stop-color:#fae072;stop-opacity:1;"
         offset="0"
         id="stop2989" />
      <stop
         style="stop-color:#fdf98b;stop-opacity:1;"
         offset="1"
         id="stop2991" />
    </linearGradient>
    <linearGradient
       id="linearGradient2971">
      <stop
         style="stop-color:#fdf98b;stop-opacity:1;"
         offset="0"
         id="stop2973" />
      <stop
         style="stop-color:#fae072;stop-opacity:1;"
         offset="1"
         id="stop2975" />
    </linearGradient>
    <linearGradient
       id="linearGradient2930">
      <stop
         style="stop-color:#fae072;stop-opacity:1"
         offset="0"
         id="stop2932" />
      <stop
         style="stop-color:#bc610e;stop-opacity:1;"
         offset="1"
         id="stop2934" />
    </linearGradient>
    <linearGradient
       inkscape:collect="always"
       id="linearGradient2902">
      <stop
         style="stop-color:#fae072;stop-opacity:1;"
         offset="0"
         id="stop2904" />
      <stop
         style="stop-color:#fae072;stop-opacity:0;"
         offset="1"
         id="stop2906" />
    </linearGradient>
    <radialGradient
       inkscape:collect="always"
       xlink:href="#linearGradient3088"
       id="radialGradient2229"
       gradientUnits="userSpaceOnUse"
       gradientTransform="matrix(0.881385,1.7823543,-1.7419934,0.8614258,582.36503,-109.12086)"
       cx="1.1839138"
       cy="310.05365"
       fx="1.1839138"
       fy="310.05365"
       r="342.96875" />
    <radialGradient
       inkscape:collect="always"
       xlink:href="#linearGradient2930"
       id="radialGradient3250"
       gradientUnits="userSpaceOnUse"
       gradientTransform="matrix(-1.5522412,2.758659e-2,-4.2954147e-2,-2.415035,1016.7224,1310.3459)"
       cx="379.25647"
       cy="372.38046"
       fx="379.25647"
       fy="372.38046"
       r="92.942275" />
    <radialGradient
       inkscape:collect="always"
       xlink:href="#linearGradient2902"
       id="radialGradient3252"
       gradientUnits="userSpaceOnUse"
       gradientTransform="matrix(0.8026494,0,0,0.7007997,81.178902,117.89577)"
       cx="411.34375"
       cy="431.82535"
       fx="411.34375"
       fy="431.82535"
       r="221.73511" />
    <radialGradient
       inkscape:collect="always"
       xlink:href="#linearGradient3217"
       id="radialGradient3254"
       gradientUnits="userSpaceOnUse"
       gradientTransform="matrix(-3.4674678e-3,0.6396256,-0.8863625,-4.7996731e-3,677.17242,191.75398)"
       cx="361.4035"
       cy="296.52505"
       fx="361.4035"
       fy="296.52505"
       r="220.8605" />
  </defs>
  <sodipodi:namedview
     inkscape:window-height="974"
     inkscape:window-width="1280"
     inkscape:pageshadow="2"
     inkscape:pageopacity="0.0"
     guidetolerance="10.0"
     gridtolerance="10.0"
     objecttolerance="10.0"
     borderopacity="1.0"
     bordercolor="#666666"
     pagecolor="#ffffff"
     id="base"
     inkscape:zoom="0.70710678"
     inkscape:cx="460.21937"
     inkscape:cy="458.69982"
     inkscape:window-x="-8"
     inkscape:window-y="-8"
     inkscape:current-layer="svg2"
     showguides="true"
     inkscape:guide-bbox="true"
     inkscape:object-points="false"
     inkscape:object-paths="false"
     inkscape:object-nodes="false"
     inkscape:object-bbox="false" />
  <path
     style="fill:#4d4d4d;fill-opacity:1;fill-rule:evenodd;stroke:none;stroke-width:2;stroke-linecap:butt;stroke-linejoin:miter;stroke-opacity:1;stroke-miterlimit:4;stroke-dasharray:none"
     d="M 683.5901,480.10111 L 414.59375,421.84375 L 145.05635,476.56558 L 119.1875,486.3125 C 129.34665,492.44936 142.82557,499.73095 161.9375,508.4375 C 253.27784,550.0481 359.21966,552.77192 442.65625,553.6875 C 505.09485,554.39461 577.69617,540.97485 642.75,520.46875 C 696.10849,503.64923 708.07643,491.12081 710.65625,487.15625 L 711.34375,487.21875 C 711.34375,487.21875 711.34303,486.97926 711.34375,486.9375 L 683.5901,480.10111 z "
     id="path2835"
     sodipodi:nodetypes="ccccscscccc" />
  <path
     style="fill:#4d4d4d;fill-opacity:1;fill-rule:evenodd;stroke:none;stroke-width:2;stroke-linecap:butt;stroke-linejoin:miter;stroke-opacity:1;stroke-miterlimit:4;stroke-dasharray:none"
     d="M 119.1875,486.3125 L 129.5,484.34375 L 210.75583,454.80244 L 412.9631,422.15768 L 413.6875,113.4375 C 413.87207,113.46756 414.06517,113.53155 414.25,113.5625 L 414.40625,104.1875 C 414.2418,104.1627 413.97045,104.08449 413.8125,104.0625 L 413.375,104.375 C 404.11239,106.13017 374.97901,112.85213 318.90625,134.375 C 188.87243,184.28697 125.23957,324.23903 113.71875,356.4375 C 102.9251,386.60366 91.9375,464.59374 91.9375,464.59375 C 91.9375,464.59375 95.518338,472.01463 119.1875,486.3125 z "
     id="path2810"
     sodipodi:nodetypes="cccccccccsscc" />
  <path
     style="fill:#b12e00;fill-opacity:1;stroke:none;stroke-width:3;stroke-miterlimit:4;stroke-dashoffset:0;stroke-opacity:1"
     d="M 341.62072,155.9472 L 413.54477,124.20367 L 412.62707,423.12173 L 176.664,497.32204 L 146.9985,476.10884 L 227.20905,274.38315 L 341.62072,155.9472 z "
     id="rect3241"
     sodipodi:nodetypes="ccccccc" />
  <path
     style="fill:#333333;fill-opacity:1;fill-rule:evenodd;stroke:none;stroke-width:2;stroke-linecap:butt;stroke-linejoin:miter;stroke-opacity:1;stroke-miterlimit:4;stroke-dasharray:none"
     d="M 711.34375,486.9375 C 711.34663,486.77045 711.35402,486.50162 711.34375,485.8125 C 711.24477,479.17016 710.38621,447.9982 702.875,407.3125 C 694.38972,361.35056 683.05758,330.25483 656.1875,285 C 629.31745,239.74517 585.82405,190.60718 532.4375,156.3125 C 482.2816,124.09315 431.31727,106.73774 414.40625,104.1875 L 414.25,113.5625 L 415.0911,420.74264 L 711.34375,486.9375 z "
     id="path2826"
     sodipodi:nodetypes="csssscccc" />
  <path
     style="fill:#da551a;fill-opacity:1;fill-rule:evenodd;stroke:none;stroke-width:1px;stroke-linecap:butt;stroke-linejoin:miter;stroke-opacity:1"
     d="M 413.65625,422.1875 L 238.80736,474.93305 L 175.96892,496.66342 L 189.34375,502.71875 C 273.46914,533.5174 364.42085,539.23572 453.43685,538.55774 C 527.96077,535.98316 602.57106,522.17129 671.375,493.1875 C 678.51729,489.3799 682.73751,488.907 690.40047,481.5163 C 691.81027,437.16597 682.24556,388.90324 665.38702,348.1851 C 646.27378,303.49065 619.89031,261.84757 587.31338,225.86674 C 559.80903,195.79247 526.10683,171.15472 489.43736,153.38712 C 468.49156,142.38329 446.63427,132.65701 423.84375,126.25 L 413.71524,123.62508 L 413.65625,422.1875 z "
     id="path3262"
     sodipodi:nodetypes="ccccccccccccc" />
  <g
     id="g3243"
     transform="translate(2.1213203,0.5)">
    <path
       style="fill:#faac52;fill-opacity:1;fill-rule:evenodd;stroke:none;stroke-width:0.94705021px;stroke-linecap:butt;stroke-linejoin:miter;stroke-opacity:1"
       d="M 371.04088,220.72454 C 302.77118,260.59017 259.81857,355.89648 247.98527,398.80309 C 239.07593,431.10771 235.39895,466.00621 236.10579,478.1932 C 266.43387,498.05703 364.64908,509.56449 415.28918,510.98214 C 462.13722,511.52378 507.83712,507.9236 556.64738,492.21593 C 596.68255,479.33218 612.86116,468.0871 614.79679,465.05023 C 615.51177,464.87812 615.31585,465.04992 615.31262,464.02092 C 615.23837,458.9329 618.03917,452.48863 612.40346,421.32339 C 606.0369,386.11656 598.33212,362.20476 578.49399,327.34609 C 550.90561,278.86899 520.2306,252.84921 485.80515,230.00622 C 460.47565,215.33123 440.72048,203.30786 412.49573,198.61441 C 392.47203,206.42253 389.71577,208.46355 371.04088,220.72454 z "
       id="path2842"
       sodipodi:nodetypes="csccsccssccc" />
    <path
       sodipodi:nodetypes="ccccccssssssssssssssssssssc"
       id="path2870"
       d="M 262.08972,488.4911 L 262.44445,489.20024 L 411.40806,421.89459 L 412.02958,211.21942 L 411.85223,198.15107 L 411.82688,198.04976 C 411.82688,198.04976 410.15288,198.93809 407.26636,200.65837 C 404.37985,202.37864 400.27212,204.92483 395.40901,208.25623 C 392.97744,209.92194 390.36053,211.77999 387.60544,213.82801 C 384.85036,215.87603 381.956,218.12277 378.99112,220.53947 C 376.02625,222.95617 373.00703,225.54289 369.94609,228.31463 C 366.88515,231.08636 363.79228,234.04036 360.74903,237.15348 C 356.25719,241.74845 351.96845,246.42966 347.82756,251.31085 C 343.68665,256.19205 339.69043,261.26878 335.74216,266.65855 C 331.7939,272.04833 327.90008,277.7597 323.98615,283.88039 C 320.07223,290.00109 316.14137,296.53557 312.10346,303.60954 C 310.0696,307.17263 307.92677,311.34865 305.71873,315.99408 C 303.51068,320.63949 301.23553,325.74933 298.95395,331.18982 C 296.67238,336.6303 294.3929,342.41269 292.13851,348.36101 C 289.88412,354.30933 287.65226,360.42698 285.52575,366.59589 C 283.39923,372.76482 281.36833,378.9818 279.47038,385.08406 C 277.57244,391.18632 275.81979,397.16538 274.25112,402.91372 C 272.68245,408.66209 271.28538,414.16726 270.14665,419.27449 C 269.00792,424.3817 268.11976,429.10106 267.51169,433.27989 C 266.37974,441.05896 265.47532,448.46699 264.75004,455.1871 C 264.02474,461.90719 263.47893,467.94616 263.07783,473.01677 C 262.32028,482.59397 262.11555,487.84198 262.08972,488.4911 z "
       style="fill:url(#radialGradient3250);fill-opacity:1;fill-rule:evenodd;stroke:none;stroke-width:0.94705021px;stroke-linecap:butt;stroke-linejoin:miter;stroke-opacity:1" />
    <path
       id="path3335"
       d="M 261.39349,488.71701 L 262.07272,488.36482 C 262.07272,488.36482 262.30764,482.16176 263.10414,472.08847 C 263.5024,467.05183 264.04431,461.0533 264.76448,454.3782 C 265.48463,447.7031 266.38263,440.34468 267.50655,432.61771 C 268.11031,428.46686 268.9922,423.77911 270.12285,418.70609 C 271.25349,413.63308 272.64067,408.16477 274.19822,402.4549 C 275.75576,396.74504 277.49599,390.80602 279.38049,384.74464 C 281.26497,378.68323 283.28148,372.5079 285.39291,366.38029 C 287.50436,360.25268 289.7204,354.176 291.9588,348.26751 C 294.1972,342.35901 296.46055,336.61537 298.72594,331.21131 C 300.99134,325.80725 303.25036,320.73163 305.44276,316.11733 C 307.63516,311.50302 309.7628,307.35497 311.78222,303.81574 C 315.7915,296.78915 319.69452,290.29841 323.58069,284.21872 C 327.46688,278.13902 331.3331,272.46589 335.25338,267.11221 C 339.17364,261.75853 343.14154,256.7158 347.25309,251.86729 C 351.36463,247.01877 355.62296,242.36893 360.08296,237.80473 C 363.10464,234.71246 366.17559,231.77823 369.21483,229.02505 C 372.25406,226.2719 375.25188,223.70249 378.19575,221.30197 C 381.13962,218.90145 384.01344,216.66977 386.749,214.63546 C 389.48456,212.60116 392.08293,210.75555 394.49725,209.101 C 399.32588,205.79191 403.4045,203.26276 406.27056,201.55401 C 409.13661,199.84526 410.79875,198.96287 410.79875,198.96287 L 411,200.37165 L 411,198.53522 C 410.96497,198.52949 410.93443,198.51577 410.89937,198.51006 C 390.55325,206.28136 387.76276,208.31896 368.78717,220.52212 C 299.41816,260.19974 255.75737,355.04636 243.73354,397.75062 C 234.68073,429.90287 230.96529,464.63808 231.68351,476.7676 C 238.55286,481.17461 248.96841,485.15565 261.39349,488.71701 z "
       style="fill:#f09542;fill-opacity:1;fill-rule:evenodd;stroke:none;stroke-width:0.94705021px;stroke-linecap:butt;stroke-linejoin:miter;stroke-opacity:1" />
    <path
       sodipodi:nodetypes="ccccccccccsscccscc"
       id="path2900"
       d="M 413.07446,202.09773 L 413.07446,203.92877 L 412.89888,202.62446 L 413.07446,215.56719 L 411.46916,421.24613 L 411.34375,421.34645 L 542.2007,449.94085 C 542.20672,449.88548 542.2369,449.54966 542.25086,449.38902 L 618.45241,465.96875 C 618.4472,465.83783 618.45339,465.77653 618.45241,465.4671 C 618.37715,460.41792 621.22737,454.00437 615.51771,423.07716 C 609.06766,388.13922 601.25268,364.41175 581.15428,329.81933 C 553.20393,281.71248 522.1214,255.89402 487.24429,233.22548 C 461.61383,218.68036 441.61365,206.76739 413.07446,202.09773 z M 542.37628,445.27544 C 542.3787,445.90465 542.36326,446.47063 542.3512,446.95599 C 542.36059,446.45192 542.38077,445.90972 542.37628,445.27544 C 541.70116,435.40373 542.26977,435.2477 542.37628,445.27544 z "
       style="fill:url(#radialGradient3252);fill-opacity:1;fill-rule:evenodd;stroke:none;stroke-width:0.94705021px;stroke-linecap:butt;stroke-linejoin:miter;stroke-opacity:1" />
    <path
       sodipodi:nodetypes="ccccscc"
       id="path2969"
       d="M 608.85419,463.94413 L 411.82585,421.49369 L 262.72633,489.22469 C 303.81194,501.00094 378.14561,509.41409 416.07328,510.4541 C 461.22586,510.96546 505.28139,504.90203 552.32517,490.07301 C 590.91146,477.90994 606.48749,467.28836 608.35308,464.42137 C 608.83337,464.30814 608.86556,464.23061 608.85419,463.94413 z "
       style="fill:url(#radialGradient3254);fill-opacity:1;fill-rule:evenodd;stroke:none;stroke-width:0.94705021px;stroke-linecap:butt;stroke-linejoin:miter;stroke-opacity:1" />
  </g>
  <path
     style="fill:none;fill-opacity:1;fill-rule:evenodd;stroke:none;stroke-width:1;stroke-linecap:butt;stroke-linejoin:miter;stroke-opacity:1;stroke-miterlimit:4;stroke-dasharray:none"
     d="M 413.8125 104.0625 L 413.375 104.375 C 404.11239 106.13017 374.97901 112.85213 318.90625 134.375 C 188.87243 184.28697 125.23957 324.23903 113.71875 356.4375 C 102.9251 386.60366 91.9375 464.59374 91.9375 464.59375 C 91.9375 464.59375 98.297898 479.44612 161.9375 508.4375 C 253.27784 550.0481 359.21966 552.77192 442.65625 553.6875 C 505.09485 554.39461 577.69617 540.97485 642.75 520.46875 C 696.10849 503.64923 708.07643 491.12081 710.65625 487.15625 L 711.34375 487.21875 C 711.34375 487.21875 711.35659 486.6739 711.34375 485.8125 C 711.24477 479.17016 710.38621 447.9982 702.875 407.3125 C 694.38972 361.35056 683.05758 330.25483 656.1875 285 C 629.31745 239.74517 585.82405 190.60718 532.4375 156.3125 C 481.79388 123.77984 430.21373 106.34572 413.8125 104.0625 z "
     id="path1909" />
  <path
     style="fill:url(#radialGradient2229);fill-opacity:1;fill-rule:nonzero;stroke:none;stroke-width:2;stroke-miterlimit:4;stroke-dashoffset:0;stroke-opacity:1"
     d="M 402.15625,79.21875 C 214.87767,81.593618 63.625001,234.31755 63.625,422.15625 C 63.625,611.47399 217.27602,765.12499 406.59375,765.125 C 595.91149,765.125 749.56251,611.47398 749.5625,422.15625 L 749.5625,421.96875 C 749.45423,232.71999 595.84254,79.218748 406.59375,79.21875 C 405.11471,79.21875 403.63088,79.20005 402.15625,79.21875 z M 415.78125,104.375 C 416.98672,104.59158 418.40522,104.91095 419.875,105.25 C 418.38273,104.90126 417.00643,104.59994 415.78125,104.375 z M 414.375,104.65625 C 416.29641,105.01104 419.11261,105.42763 422.5625,105.90625 C 421.72166,105.69262 420.90482,105.49646 420.125,105.3125 C 420.9108,105.49573 421.70693,105.68872 422.5625,105.90625 C 444.47696,111.47809 488.78266,128.26932 532.4375,156.3125 C 585.82405,190.60718 629.31745,239.74517 656.1875,285 C 683.05758,330.25483 694.38972,361.35056 702.875,407.3125 C 710.38621,447.9982 711.24477,479.17016 711.34375,485.8125 C 711.35659,486.6739 711.34375,487.21875 711.34375,487.21875 L 710.65625,487.15625 C 708.07643,491.12081 696.10849,503.64923 642.75,520.46875 C 577.69617,540.97485 505.09485,554.39461 442.65625,553.6875 C 359.21966,552.77192 253.27784,550.0481 161.9375,508.4375 C 145.50585,500.95197 132.92092,494.40056 123.25,488.8125 C 85.359749,448.61036 79.589587,461.41155 123.25,488.8125 C 121.95198,487.1001 121.375,486.03125 121.375,486.03125 C 119.44302,470.62134 126.04398,420.45909 139.0625,378.625 C 161.0838,307.86113 217.00862,208.90193 313.15625,149.375 C 345.52685,130.85125 379.07515,116.20113 414.375,104.65625 z "
     id="path2427"
     sodipodi:nodetypes="cssccsccscccssssssccscscccscc" />
  <path
     style="fill:#e76227;fill-opacity:1;fill-rule:evenodd;stroke:none;stroke-width:1px;stroke-linecap:butt;stroke-linejoin:miter;stroke-opacity:1"
     d="M 175.00872,495.30393 L 175.24698,493.99349 C 175.66394,485.95218 176.24749,478.23103 176.97437,470.8226 C 177.70126,463.41416 178.56402,456.31845 179.56546,449.46844 C 180.5669,442.61844 181.69027,436.02903 182.9309,429.66299 C 184.17154,423.29694 185.53689,417.15428 186.98134,411.19775 C 188.4258,405.24122 189.95496,399.48573 191.56787,393.86425 C 193.18078,388.24277 194.88491,382.75532 196.63092,377.39445 C 200.12293,366.6727 203.83832,356.39769 207.6505,346.27159 C 209.55659,341.20854 211.85543,335.70433 214.5005,329.86135 C 217.14557,324.01837 220.12198,317.8515 223.37573,311.48546 C 226.62948,305.11942 230.15686,298.55048 233.889,291.91826 C 237.62115,285.28605 241.57293,278.57564 245.65315,271.93411 C 249.73337,265.29258 253.95319,258.70131 258.25121,252.30735 C 262.54922,245.91339 266.94029,239.70185 271.32579,233.81233 C 275.71128,227.92281 280.08747,222.3516 284.43015,217.2234 C 288.77283,212.0952 293.06711,207.42491 297.23668,203.3149 C 301.40625,199.2049 305.75173,195.17307 310.19213,191.25293 C 314.63254,187.33279 319.17532,183.52434 323.74324,179.84618 C 328.31115,176.16802 332.89116,172.62761 337.44325,169.24356 C 341.99535,165.85951 346.51206,162.63181 350.90501,159.59398 C 355.29795,156.55616 359.56152,153.71563 363.65198,151.07615 C 367.74244,148.43666 371.65234,145.99821 375.29699,143.80918 C 382.58629,139.43114 388.84809,136.00613 393.49419,133.74265 C 398.14028,131.47917 401.82588,129.87835 404.75202,128.73917 C 407.67817,127.59998 409.84486,126.92243 411.42334,126.53525 C 413.00182,126.14808 414.00698,126.03639 414.61008,126.02895 C 415.21317,126.0215 415.41421,126.11829 415.41421,126.11829 L 415.0866,125.73112 L 415.0866,124.62916 C 385.38988,132.21179 352.38555,147.91251 325.47063,162.09573 C 230.92648,213.83066 174.58228,326.00617 159.55153,379.38989 C 148.23479,419.58276 140.34699,462.30127 143.37955,477.46413 C 143.37954,477.46412 151.11259,484.39299 168.93306,492.65327 C 170.94184,493.5844 172.98641,494.40929 175.00872,495.30393 z "
     id="path3329" />
  <path
     style="fill:none;fill-opacity:0.75;fill-rule:evenodd;stroke:none;stroke-width:1px;stroke-linecap:butt;stroke-linejoin:miter;stroke-opacity:1"
     d="M 730,489 C 728.66667,489 728.66667,489 730,489 z "
     id="path3339" />
  <path
     style="fill:none;fill-opacity:0.75;fill-rule:evenodd;stroke:none;stroke-width:1px;stroke-linecap:butt;stroke-linejoin:miter;stroke-opacity:1"
     d="M 228.5,507.5 C 228.5,507.33333 228.5,507.16667 228.5,507.5 z "
     id="path3347" />
  <path
     sodipodi:type="arc"
     style="fill:#ffffff;fill-opacity:1;stroke:#000000;stroke-width:2;stroke-miterlimit:4;stroke-dasharray:none;stroke-dashoffset:0;stroke-opacity:1"
     id="path3311"
     sodipodi:cx="-68"
     sodipodi:cy="246"
     sodipodi:rx="17"
     sodipodi:ry="17"
     d="M -51 246 A 17 17 0 1 1  -85,246 A 17 17 0 1 1  -51 246 z"
     transform="translate(573.36396,113.32412)" />
  <text
     xml:space="preserve"
     style="font-size:24.52173996px;font-style:normal;font-weight:normal;fill:#000000;fill-opacity:1;stroke:none;stroke-width:1px;stroke-linecap:butt;stroke-linejoin:miter;stroke-opacity:1;font-family:Bitstream Vera Sans"
     x="505.41183"
     y="367.98096"
     id="text3293"><tspan
       sodipodi:role="line"
       id="tspan3295"
       x="505.41183"
       y="367.98096"
       style="text-align:center;text-anchor:middle;font-family:Arial">3</tspan></text>
  <path
     transform="translate(664.93428,45.441869)"
     d="M -51 246 A 17 17 0 1 1  -85,246 A 17 17 0 1 1  -51 246 z"
     sodipodi:ry="17"
     sodipodi:rx="17"
     sodipodi:cy="246"
     sodipodi:cx="-68"
     id="path3313"
     style="fill:#ffffff;fill-opacity:1;stroke:#000000;stroke-width:2;stroke-miterlimit:4;stroke-dasharray:none;stroke-dashoffset:0;stroke-opacity:1"
     sodipodi:type="arc" />
  <text
     id="text3315"
     y="300.09872"
     x="596.98212"
     style="font-size:24.52173996px;font-style:normal;font-weight:normal;fill:#000000;fill-opacity:1;stroke:none;stroke-width:1px;stroke-linecap:butt;stroke-linejoin:miter;stroke-opacity:1;font-family:Bitstream Vera Sans"
     xml:space="preserve"><tspan
       style="text-align:center;text-anchor:middle;font-family:Arial"
       y="300.09872"
       x="596.98212"
       id="tspan3317"
       sodipodi:role="line">2</tspan></text>
  <path
     sodipodi:type="arc"
     style="fill:#ffffff;fill-opacity:1;stroke:#000000;stroke-width:2;stroke-miterlimit:4;stroke-dasharray:none;stroke-dashoffset:0;stroke-opacity:1"
     id="path3319"
     sodipodi:cx="-68"
     sodipodi:cy="246"
     sodipodi:rx="17"
     sodipodi:ry="17"
     d="M -51 246 A 17 17 0 1 1  -85,246 A 17 17 0 1 1  -51 246 z"
     transform="translate(711.60334,5.4903358)" />
  <text
     xml:space="preserve"
     style="font-size:24.52173996px;font-style:normal;font-weight:normal;fill:#000000;fill-opacity:1;stroke:none;stroke-width:1px;stroke-linecap:butt;stroke-linejoin:miter;stroke-opacity:1;font-family:Bitstream Vera Sans"
     x="643.65118"
     y="260.14722"
     id="text3321"><tspan
       sodipodi:role="line"
       id="tspan3323"
       x="643.65118"
       y="260.14722"
       style="text-align:center;text-anchor:middle;font-family:Arial">1</tspan></text>
</svg>
